%YAML 1.1
%TAG !u! tag:unity3d.com,2011:
--- !u!114 &11400000
MonoBehaviour:
  m_ObjectHideFlags: 0
  m_CorrespondingSourceObject: {fileID: 0}
  m_PrefabInstance: {fileID: 0}
  m_PrefabAsset: {fileID: 0}
  m_GameObject: {fileID: 0}
  m_Enabled: 1
  m_EditorHideFlags: 0
  m_Script: {fileID: 11500000, guid: 688063d5cc440f640b288fb03337e40f, type: 3}
  m_Name: ConcreteWallsA5
  m_EditorClassIdentifier: 
  delay: 3
  duration: 1
  buffTarget: {fileID: 11400000, guid: fab51bdbd87655649a10cc0263474cff, type: 2}
  tile: {fileID: 11400000, guid: 34ddbc2f0bdf6d5479f6e390269d7e29, type: 2}
  obsolete: 0
  coords:
  - {fileID: 11400000, guid: bb6279f09cf29164bae87b2af65ee59b, type: 2}
