%YAML 1.1
%TAG !u! tag:unity3d.com,2011:
--- !u!114 &11400000
MonoBehaviour:
  m_ObjectHideFlags: 0
  m_CorrespondingSourceObject: {fileID: 0}
  m_PrefabInstance: {fileID: 0}
  m_PrefabAsset: {fileID: 0}
  m_GameObject: {fileID: 0}
  m_Enabled: 1
  m_EditorHideFlags: 0
  m_Script: {fileID: 11500000, guid: 688063d5cc440f640b288fb03337e40f, type: 3}
  m_Name: ConcreteWallsA3
  m_EditorClassIdentifier: 
  delay: 2
  duration: 1
  buffTarget: {fileID: 11400000, guid: fab51bdbd87655649a10cc0263474cff, type: 2}
  tile: {fileID: 11400000, guid: f6751edad4f9e48429402f779eaa70e0, type: 2}
  obsolete: 0
  coords:
  - {fileID: 11400000, guid: 3f2b0ef76e460c64abed4bbe20f6bee2, type: 2}
  - {fileID: 11400000, guid: 33dfac02bb776bb43b87783548729597, type: 2}
