%YAML 1.1
%TAG !u! tag:unity3d.com,2011:
--- !u!114 &11400000
MonoBehaviour:
  m_ObjectHideFlags: 0
  m_CorrespondingSourceObject: {fileID: 0}
  m_PrefabInstance: {fileID: 0}
  m_PrefabAsset: {fileID: 0}
  m_GameObject: {fileID: 0}
  m_Enabled: 1
  m_EditorHideFlags: 0
  m_Script: {fileID: 11500000, guid: 688063d5cc440f640b288fb03337e40f, type: 3}
  m_Name: DirtOpenLEdge
  m_EditorClassIdentifier: 
  delay: 0
  duration: -1
  buffTarget: {fileID: 11400000, guid: d57092a2397c22048a8fac72d2f4c967, type: 2}
  tile: {fileID: 11400000, guid: abd7179184f3b384db27c307c94effd0, type: 2}
  obsolete: 0
  coords:
  - {fileID: 11400000, guid: b28f4343f33ae5f43bc31b1b688e46c4, type: 2}
  - {fileID: 11400000, guid: b28f4343f33ae5f43bc31b1b688e46c4, type: 2}
