%YAML 1.1
%TAG !u! tag:unity3d.com,2011:
--- !u!114 &11400000
MonoBehaviour:
  m_ObjectHideFlags: 0
  m_CorrespondingSourceObject: {fileID: 0}
  m_PrefabInstance: {fileID: 0}
  m_PrefabAsset: {fileID: 0}
  m_GameObject: {fileID: 0}
  m_Enabled: 1
  m_EditorHideFlags: 0
  m_Script: {fileID: 11500000, guid: 688063d5cc440f640b288fb03337e40f, type: 3}
  m_Name: ConcreteWallsB3
  m_EditorClassIdentifier: 
  delay: 3
  duration: 1
  buffTarget: {fileID: 11400000, guid: fab51bdbd87655649a10cc0263474cff, type: 2}
  tile: {fileID: 0}
  obsolete: 0
  coords:
  - {fileID: 11400000, guid: fe6bd41a543c0df44af9c113259fdf44, type: 2}
  - {fileID: 11400000, guid: 0c8249fbe950bb8489e5495e06ae1f97, type: 2}
