%YAML 1.1
%TAG !u! tag:unity3d.com,2011:
--- !u!114 &11400000
MonoBehaviour:
  m_ObjectHideFlags: 0
  m_CorrespondingSourceObject: {fileID: 0}
  m_PrefabInstance: {fileID: 0}
  m_PrefabAsset: {fileID: 0}
  m_GameObject: {fileID: 0}
  m_Enabled: 1
  m_EditorHideFlags: 0
  m_Script: {fileID: 11500000, guid: 688063d5cc440f640b288fb03337e40f, type: 3}
  m_Name: ConcreteWallsB4
  m_EditorClassIdentifier: 
  delay: 3
  duration: 1
  buffTarget: {fileID: 11400000, guid: fab51bdbd87655649a10cc0263474cff, type: 2}
  tile: {fileID: 0}
  obsolete: 0
  coords:
  - {fileID: 11400000, guid: 09c7a0493c1075943b7bbae072a497c7, type: 2}
  - {fileID: 11400000, guid: ee7d8d827a69b3e4caa100eebdfee3f8, type: 2}
  - {fileID: 11400000, guid: aec10a59e3cee804899ca147b5f40ec7, type: 2}
  - {fileID: 11400000, guid: 5e39da83dcf28df4587a3de0c3b972eb, type: 2}
