%YAML 1.1
%TAG !u! tag:unity3d.com,2011:
--- !u!114 &11400000
MonoBehaviour:
  m_ObjectHideFlags: 0
  m_CorrespondingSourceObject: {fileID: 0}
  m_PrefabInstance: {fileID: 0}
  m_PrefabAsset: {fileID: 0}
  m_GameObject: {fileID: 0}
  m_Enabled: 1
  m_EditorHideFlags: 0
  m_Script: {fileID: 11500000, guid: 688063d5cc440f640b288fb03337e40f, type: 3}
  m_Name: CornerDirt
  m_EditorClassIdentifier: 
  delay: 0
  duration: -1
  buffTarget: {fileID: 0}
  tile: {fileID: 11400000, guid: 78afd3e3b5159464ba5534cbf614c3f9, type: 2}
  obsolete: 0
  coords:
  - {fileID: 11400000, guid: 5bb671f1dee795d4fb932597f2564fc1, type: 2}
  - {fileID: 11400000, guid: 6b28dae360a0efc4d9bf9a1220150f79, type: 2}
  - {fileID: 11400000, guid: 6959848a3a95e0543923a89bc2aaab99, type: 2}
  - {fileID: 11400000, guid: da3a7014ecc7f8946bd3ca6b332c4b2f, type: 2}
