%YAML 1.1
%TAG !u! tag:unity3d.com,2011:
--- !u!114 &11400000
MonoBehaviour:
  m_ObjectHideFlags: 0
  m_CorrespondingSourceObject: {fileID: 0}
  m_PrefabInstance: {fileID: 0}
  m_PrefabAsset: {fileID: 0}
  m_GameObject: {fileID: 0}
  m_Enabled: 1
  m_EditorHideFlags: 0
  m_Script: {fileID: 11500000, guid: 7489e2e17fce7564c9df98f3c7f826e0, type: 3}
  m_Name: E-Waste Disposal
  m_EditorClassIdentifier: 
  storyType: {fileID: 11400000, guid: 68ed35d8baa941243abcf05b64a91a41, type: 2}
  properties:
  - stringValue: E-Waste Disposal
    intValue: 0
    sprite: {fileID: 0}
    element: {fileID: 11400000, guid: 02dc20d1c159bdf42b57f19a2a703242, type: 2}
  - stringValue: Being a tech company, you generate a significant amount of electronic
      waste. This waste of broken keyboards, cracked monitors, burnt-out PCBS and
      more has been allowed to pile up in a storeroom, but the pile is looking about
      to collapse. As such you have to make the decision of what to do with it, keeping
      in mind that properly disposing of e-waste is not cheap.
    intValue: 0
    sprite: {fileID: 0}
    element: {fileID: 11400000, guid: 878a357ec93122e4fb06251b95bbfe53, type: 2}
  - stringValue: 
    intValue: 0
    sprite: {fileID: 21300000, guid: 5b5857eb31acaec40bc39c40b4e2e123, type: 3}
    element: {fileID: 11400000, guid: c4b9fbd48b5ec554792c4ada1d967d70, type: 2}
  - stringValue: The Faster & Cheaper Option
    intValue: 0
    sprite: {fileID: 0}
    element: {fileID: 11400000, guid: c110f790fbae9b6478547eae0ed06e2c, type: 2}
  - stringValue: Responsibly Discard of the E-Waste
    intValue: 0
    sprite: {fileID: 0}
    element: {fileID: 11400000, guid: 2ecda7393f22d6347a9a45bc97f831dc, type: 2}
  _keys:
  - The Faster & Cheaper Option
  - Responsibly Discard of the E-Waste
  _values:
  - solutionText: Disposing of all the electronic waste through the proper means will
      likely cost the company money you don't think it needs to spend. Instead, you
      instruct some employees to pile that rubbish into the back of a few company
      trucks and dump it all in the nearest landfill they can find. You're pretty
      sure broken keyboards will have a positive ecological effect.
    nextCard: {fileID: 0}
    nextLvlCard: {fileID: 0}
    CardEffects:
    - {fileID: 11400000, guid: 6e34245d47d788449a07a0b38d012eb6, type: 2}
    - {fileID: 11400000, guid: 20df0ba72e70e5c4f9fb9e29505bc1d9, type: 2}
    - {fileID: 11400000, guid: 06baa4b9410f6cb4589846c2b8eb1301, type: 2}
    ContextBundle: {fileID: 0}
  - solutionText: Your companies waste, your responsibility. You contact a proper
      e-waste recycling facility to pick up the trash pile of broken electronics from
      the offices. It may cost you, but you're confident you' are doing the right
      thing by the environment.
    nextCard: {fileID: 0}
    nextLvlCard: {fileID: 0}
    CardEffects:
    - {fileID: 11400000, guid: e35e2456fd9208d42aada322163d7149, type: 2}
    - {fileID: 11400000, guid: 99dfd2770bdc7114ca858bf08635cea9, type: 2}
    - {fileID: 11400000, guid: 656f9a87be3811a45a1ab5c4951a1f56, type: 2}
    - {fileID: 11400000, guid: e7bb927a22643024090976514e310052, type: 2}
    ContextBundle: {fileID: 0}
