%YAML 1.1
%TAG !u! tag:unity3d.com,2011:
--- !u!114 &11400000
MonoBehaviour:
  m_ObjectHideFlags: 0
  m_CorrespondingSourceObject: {fileID: 0}
  m_PrefabInstance: {fileID: 0}
  m_PrefabAsset: {fileID: 0}
  m_GameObject: {fileID: 0}
  m_Enabled: 1
  m_EditorHideFlags: 0
  m_Script: {fileID: 11500000, guid: 7489e2e17fce7564c9df98f3c7f826e0, type: 3}
  m_Name: Environmental Impact Study
  m_EditorClassIdentifier: 
  storyType: {fileID: 11400000, guid: 68ed35d8baa941243abcf05b64a91a41, type: 2}
  properties:
  - stringValue: Environmental Impact Study
    intValue: 0
    sprite: {fileID: 0}
    element: {fileID: 11400000, guid: 02dc20d1c159bdf42b57f19a2a703242, type: 2}
  - stringValue: The government environmental protection authority has requested that
      you perform an environmental impact study for a project your company is undertaking
      that might have negative effects on the environment. Performing the study will
      cost money and time, and time being money that's just more money to pay. However,
      not performing the study will exclude your company from a recently implemented
      tax rebate. The rebate exists to offset sustainability spends, though the rebate
      would return less than half the costs of the study itself. Undertaking the study
      could provide a better understanding of how your project may impact the environment,
      and thus allow some mitigation of these effects. It may also make your company
      look good in the eys of the public, as it would demonstrate your dedication
      to environmental sustainability.
    intValue: 0
    sprite: {fileID: 0}
    element: {fileID: 11400000, guid: 878a357ec93122e4fb06251b95bbfe53, type: 2}
  - stringValue: 
    intValue: 0
    sprite: {fileID: 21300000, guid: 5b5857eb31acaec40bc39c40b4e2e123, type: 3}
    element: {fileID: 11400000, guid: c4b9fbd48b5ec554792c4ada1d967d70, type: 2}
  - stringValue: Do the Study
    intValue: 0
    sprite: {fileID: 0}
    element: {fileID: 11400000, guid: c110f790fbae9b6478547eae0ed06e2c, type: 2}
  - stringValue: Don't do the Study
    intValue: 0
    sprite: {fileID: 0}
    element: {fileID: 11400000, guid: 2ecda7393f22d6347a9a45bc97f831dc, type: 2}
  - stringValue: Fake the Study
    intValue: 0
    sprite: {fileID: 0}
    element: {fileID: 11400000, guid: 0f05e2f769ec2d049b547cee4c7bac5c, type: 2}
  _keys:
  - Do the Study
  - Don't do the Study
  - Fake the Study
  _values:
  - solutionText: As a modern technology company, it is your duty to pursue engineering
      projects that consider the environment and it's sustainability. The cost of
      the study is worth the good done for the planet, which is good done for all
      of humanity when considering the decision from a utilitarian framework. A reputation
      boost for doing the study is not a bad outcome as well.
    nextCard: {fileID: 0}
    nextLvlCard: {fileID: 0}
    CardEffects:
    - {fileID: 11400000, guid: f04f364d2b7eea94984cc5efab1726e9, type: 2}
    - {fileID: 11400000, guid: 5e3114cce9b78f248aef5897d6bafacf, type: 2}
    - {fileID: 11400000, guid: d93e0b7368155a44b811ef7494cff12b, type: 2}
    - {fileID: 11400000, guid: 557e26bd879f7ea4da63c6249a72a648, type: 2}
    ContextBundle: {fileID: 0}
  - solutionText: You decide not to do the study. Losing the rebate isn't a loss if
      you never make an environmental spend in the first place. Any sense of responsibility
      you feel for your projects impact on the environment is minimal to the money
      you'll save not doing the study. The public likely won't be happy with your
      refusal to the study, and if the environment had feelings you imagine it wouldn't
      be so happy as well. But you're satisfied knowing that some money has been saved.
    nextCard: {fileID: 0}
    nextLvlCard: {fileID: 0}
    CardEffects:
    - {fileID: 11400000, guid: ec1e7377b41a0c542b5b40475d452b3e, type: 2}
    - {fileID: 11400000, guid: c6d082e8ba7232c409fda3f99fb61a28, type: 2}
    - {fileID: 11400000, guid: e1507b21916bd9e44977ca6582984f21, type: 2}
    ContextBundle: {fileID: 0}
  - solutionText: An entirely unethical action, falsifying the environmental impact
      study would require that any virtue of honesty be discarded, and any sense of
      duty to the public and environment be ignored. The financial cost to fake the
      study would be miniscule, and the fake report means your eligible for the governments
      rebate. Add the fact that the public will still percieve you as having completed
      the study and you have yourself a sure business deal. Keep in mind, your decision
      does nothing for the enrvionment and may set precident for how you company handles
      sustainability in the future.
    nextCard: {fileID: 0}
    nextLvlCard: {fileID: 0}
    CardEffects:
    - {fileID: 11400000, guid: 372798af36978364f9997efa4b364d64, type: 2}
    - {fileID: 11400000, guid: a9b6d5ac4d4239e4f950beb8ae284c97, type: 2}
    - {fileID: 11400000, guid: bff6047691e8d764a878f5cca1c2dbce, type: 2}
    - {fileID: 11400000, guid: 273ea8193c2a0a245a8a6b2db58944c3, type: 2}
    - {fileID: 11400000, guid: 08113217bb5f0b94a9302f372971730c, type: 2}
    ContextBundle: {fileID: 0}
