%YAML 1.1
%TAG !u! tag:unity3d.com,2011:
--- !u!114 &11400000
MonoBehaviour:
  m_ObjectHideFlags: 0
  m_CorrespondingSourceObject: {fileID: 0}
  m_PrefabInstance: {fileID: 0}
  m_PrefabAsset: {fileID: 0}
  m_GameObject: {fileID: 0}
  m_Enabled: 1
  m_EditorHideFlags: 0
  m_Script: {fileID: 11500000, guid: 7489e2e17fce7564c9df98f3c7f826e0, type: 3}
  m_Name: Standards Violation
  m_EditorClassIdentifier: 
  storyType: {fileID: 11400000, guid: 68ed35d8baa941243abcf05b64a91a41, type: 2}
  properties:
  - stringValue: Standards Violation
    intValue: 0
    sprite: {fileID: 0}
    element: {fileID: 11400000, guid: 02dc20d1c159bdf42b57f19a2a703242, type: 2}
  - stringValue: One of the technologies you've developed and marketed is actually
      found by a standards organisation to be in breach of a technical standard you've
      advertised to have ascribed to. The infraction is only a small one but you must
      choose one of the following responses to the problem.
    intValue: 0
    sprite: {fileID: 0}
    element: {fileID: 11400000, guid: 878a357ec93122e4fb06251b95bbfe53, type: 2}
  - stringValue: 
    intValue: 0
    sprite: {fileID: 21300000, guid: 5b5857eb31acaec40bc39c40b4e2e123, type: 3}
    element: {fileID: 11400000, guid: c4b9fbd48b5ec554792c4ada1d967d70, type: 2}
  - stringValue: Perform a Recall
    intValue: 0
    sprite: {fileID: 0}
    element: {fileID: 11400000, guid: c110f790fbae9b6478547eae0ed06e2c, type: 2}
  - stringValue: Devotion to Sloth
    intValue: 0
    sprite: {fileID: 0}
    element: {fileID: 11400000, guid: 2ecda7393f22d6347a9a45bc97f831dc, type: 2}
  - stringValue: Bribe the Standards Organisation
    intValue: 0
    sprite: {fileID: 0}
    element: {fileID: 11400000, guid: 0f05e2f769ec2d049b547cee4c7bac5c, type: 2}
  _keys:
  - Perform a Recall
  - Devotion to Sloth
  - Bribe the Standards Organisation
  _values:
  - solutionText: Feeling it is your duty to ensure that the products you provide
      comply with the standards of the technology, and that consumers recieved exactly
      as advertised, you decide to institute a recall of the product. While this will
      cost money and time, it is important in ensuring the public continues to have
      a positive perception of your company.
    nextCard: {fileID: 0}
    nextLvlCard: {fileID: 0}
    CardEffects:
    - {fileID: 11400000, guid: 563cd6f8840386342bd50fc6458b1a49, type: 2}
    - {fileID: 11400000, guid: f1b3ecd55733e4e4c9dad32a862e5670, type: 2}
    - {fileID: 11400000, guid: 7603f5659b783c04397a3245724b1841, type: 2}
    ContextBundle: {fileID: 0}
  - solutionText: You don't have or want to devote the time, resources or finances
      to deal with a recall of the product and the work necessary to fix the infraction.
      You infrom the standards organisation that you are not going to take any action
      to rectify the infraction. Their response is to publicly annouce your products
      inconsistancy with the standard. You are likely to lose some positive public
      opinion as a result.
    nextCard: {fileID: 0}
    nextLvlCard: {fileID: 0}
    CardEffects:
    - {fileID: 11400000, guid: fd8fcef70a25d314a9be76f42f29e227, type: 2}
    ContextBundle: {fileID: 0}
  - solutionText: 'You know someone in the organisation who owes you big time for
      a opportunity you threw their way at the start of their career. You decide to
      bribe the standards organisation through them, to forget the whole issue. '
    nextCard: {fileID: 11400000}
    nextLvlCard: {fileID: 0}
    CardEffects:
    - {fileID: 11400000, guid: afa65eed5a651034c8d896c9e0b22844, type: 2}
    ContextBundle: {fileID: 0}
