%YAML 1.1
%TAG !u! tag:unity3d.com,2011:
--- !u!114 &11400000
MonoBehaviour:
  m_ObjectHideFlags: 0
  m_CorrespondingSourceObject: {fileID: 0}
  m_PrefabInstance: {fileID: 0}
  m_PrefabAsset: {fileID: 0}
  m_GameObject: {fileID: 0}
  m_Enabled: 1
  m_EditorHideFlags: 0
  m_Script: {fileID: 11500000, guid: 688063d5cc440f640b288fb03337e40f, type: 3}
  m_Name: DeadWater
  m_EditorClassIdentifier: 
  delay: 0
  duration: -1
  buffTarget: {fileID: 0}
  tile: {fileID: 11400000, guid: f9775531345fe72408f8462e3cb92f5b, type: 2}
  obsolete: 0
  coords:
  - {fileID: 11400000, guid: d80ec56480968bd42abe9d4f7f918e3c, type: 2}
  - {fileID: 11400000, guid: 1db9fc9f807631740bc278ab938fe647, type: 2}
  - {fileID: 11400000, guid: 5cf393890e0c9974cabab3f95654a2f4, type: 2}
  - {fileID: 11400000, guid: d546cc3cbc32f7f4aaf3cc995c61a40e, type: 2}
