%YAML 1.1
%TAG !u! tag:unity3d.com,2011:
--- !u!114 &11400000
MonoBehaviour:
  m_ObjectHideFlags: 0
  m_CorrespondingSourceObject: {fileID: 0}
  m_PrefabInstance: {fileID: 0}
  m_PrefabAsset: {fileID: 0}
  m_GameObject: {fileID: 0}
  m_Enabled: 1
  m_EditorHideFlags: 0
  m_Script: {fileID: 11500000, guid: 688063d5cc440f640b288fb03337e40f, type: 3}
  m_Name: Trees2
  m_EditorClassIdentifier: 
  delay: 0
  duration: -1
  buffTarget: {fileID: 11400000, guid: c446239af57d34f4fbc9c0b1c5f4172a, type: 2}
  tile: {fileID: 11400000, guid: 78eee699a4ca0404183c18780122f739, type: 2}
  obsolete: 0
  coords:
  - {fileID: 11400000, guid: 0a98b638df8593748bbc3c32cb37fd91, type: 2}
  - {fileID: 11400000, guid: 2514cbe685fc2804f803a5b7edd60d20, type: 2}
  - {fileID: 11400000, guid: f0b20798c595a0346ade3beec9aa8e23, type: 2}
  - {fileID: 11400000, guid: 2f4f9d9ee3fa861428386aa963635dca, type: 2}
  - {fileID: 11400000, guid: 1a2ecf880a934a64dba2332a81561d03, type: 2}
  - {fileID: 11400000, guid: f4724aa30b6807f45a8a4596a15f55c8, type: 2}
  - {fileID: 11400000, guid: 1d0286a5424669a46be832ce4e4a24cb, type: 2}
  - {fileID: 11400000, guid: 12e572cba02dccc4cb3ab705e2736b8c, type: 2}
  - {fileID: 11400000, guid: 1551d9c7ce73e4f448060f90711be6d9, type: 2}
  - {fileID: 11400000, guid: 59eeb3ee19162eb44927ae7902fe0645, type: 2}
  - {fileID: 11400000, guid: 4a0c4588c0d2e88438e14062c3c4a4d3, type: 2}
  - {fileID: 11400000, guid: b8b724607b938174691ac757df37f24f, type: 2}
  - {fileID: 11400000, guid: 798efd5c77b97e34298382d5301fb1b0, type: 2}
  - {fileID: 11400000, guid: 4226aa269596d7440b5f079977b45976, type: 2}
  - {fileID: 11400000, guid: b58eeb8452e836346bfdf27da28bc09d, type: 2}
  - {fileID: 11400000, guid: 6a1a7e634499c1a47b2c94276c5d1682, type: 2}
  - {fileID: 11400000, guid: 5cd21a965aad4da41a37db48e7507333, type: 2}
  - {fileID: 11400000, guid: cbae06ef1bbd2b1499dba2ea42c509b0, type: 2}
  - {fileID: 11400000, guid: bdb4c71d04bf4fc42b88381a861c3b6b, type: 2}
  - {fileID: 11400000, guid: 6b28dae360a0efc4d9bf9a1220150f79, type: 2}
  - {fileID: 11400000, guid: 1660260dde937694395a7e3c58f1f108, type: 2}
  - {fileID: 11400000, guid: 9bbaf1735fea91d4d918ac4c5aa89283, type: 2}
  - {fileID: 11400000, guid: ab5fed86752519a458547ef933a4c2f9, type: 2}
  - {fileID: 11400000, guid: 0f9a022b784df8745b7d5f56863c9059, type: 2}
  - {fileID: 11400000, guid: cff8c7d81923ffb498c7840b42462c0b, type: 2}
