%YAML 1.1
%TAG !u! tag:unity3d.com,2011:
--- !u!114 &11400000
MonoBehaviour:
  m_ObjectHideFlags: 0
  m_CorrespondingSourceObject: {fileID: 0}
  m_PrefabInstance: {fileID: 0}
  m_PrefabAsset: {fileID: 0}
  m_GameObject: {fileID: 0}
  m_Enabled: 1
  m_EditorHideFlags: 0
  m_Script: {fileID: 11500000, guid: 688063d5cc440f640b288fb03337e40f, type: 3}
  m_Name: Trees1
  m_EditorClassIdentifier: 
  delay: 0
  duration: -1
  buffTarget: {fileID: 11400000, guid: c446239af57d34f4fbc9c0b1c5f4172a, type: 2}
  tile: {fileID: 11400000, guid: 78eee699a4ca0404183c18780122f739, type: 2}
  obsolete: 0
  coords:
  - {fileID: 11400000, guid: 5140955ffb572934c8b7e1844c45736a, type: 2}
  - {fileID: 11400000, guid: ee2659d84c25ffb40bc8345602862400, type: 2}
  - {fileID: 11400000, guid: cca557663200af148a38fac532d0741d, type: 2}
  - {fileID: 11400000, guid: f548e9492944d844d8acba89b2dda13b, type: 2}
  - {fileID: 11400000, guid: 6702f742c1f56514bbf86b1b6f862bf5, type: 2}
  - {fileID: 11400000, guid: f6db37e665b061145a2e44ea1b96b2ff, type: 2}
  - {fileID: 11400000, guid: 9d94cf5e5505fc6489e0fe29f3c8ceab, type: 2}
  - {fileID: 11400000, guid: 3a049b37749d9624998e2036df246d90, type: 2}
  - {fileID: 11400000, guid: 4dd2b689e465a564c85e9c21ecef7c61, type: 2}
  - {fileID: 11400000, guid: 38d0efdc9623bfe4aa54a3d26f140f95, type: 2}
  - {fileID: 11400000, guid: 788a5e38795878140a6dffcb91d5749e, type: 2}
  - {fileID: 11400000, guid: bd8fc6665187b944da72d0bd14f96175, type: 2}
  - {fileID: 11400000, guid: 6bcbec16bb0ad84478c48f2284bab4ea, type: 2}
  - {fileID: 11400000, guid: 9ab08fff0a93dd341a409fd309fef038, type: 2}
  - {fileID: 11400000, guid: 08c16955310addc41ada9329103e9be5, type: 2}
  - {fileID: 11400000, guid: de6ed033be99d35408bdb757da591da2, type: 2}
  - {fileID: 11400000, guid: 7f255fa13a1c2d845b2d7a20ba82f7e3, type: 2}
  - {fileID: 11400000, guid: 71d26d2aabc2af5438d3914f71ac8888, type: 2}
  - {fileID: 11400000, guid: c8cf60d4260bf13478d13a22c8227320, type: 2}
  - {fileID: 11400000, guid: c43f693982604ad4e9fe5e6527588cb4, type: 2}
  - {fileID: 11400000, guid: 3c97c18bba3181b41be975629332a0f9, type: 2}
  - {fileID: 11400000, guid: 10f54a2130e49394882e2f8e248c52a7, type: 2}
  - {fileID: 11400000, guid: fe8caf834a6e3a049a635ca16f4c7168, type: 2}
  - {fileID: 11400000, guid: eaa5e7700e4a3e14586fde1efa8ee9b1, type: 2}
  - {fileID: 11400000, guid: 3ffc73dfe2dd5274e9c93d2b51d34c36, type: 2}
  - {fileID: 11400000, guid: 5096a55cc8409564bb1bf885ce23f180, type: 2}
  - {fileID: 11400000, guid: f0adc7112a7561f4b808b519f0edee35, type: 2}
  - {fileID: 11400000, guid: b6404609545993443b1a0f0fc058b9d1, type: 2}
  - {fileID: 11400000, guid: 37b268c07455a73419fbaa194340c8c5, type: 2}
  - {fileID: 11400000, guid: cdd10d9f965683b49b96ea855bd6aa2d, type: 2}
  - {fileID: 11400000, guid: 9d6e94d67dc6e254b83f257dee79335b, type: 2}
  - {fileID: 11400000, guid: c428ce26267c442469891346ef91a817, type: 2}
  - {fileID: 11400000, guid: 776e95ff69146a144a595cb527ed2ca1, type: 2}
  - {fileID: 11400000, guid: 265cc6c23b6f72547b70a498037bc833, type: 2}
  - {fileID: 11400000, guid: 3441814252e86284cad4bc629cb8c403, type: 2}
  - {fileID: 11400000, guid: 241c3dfdf37fef1458762b4eb876e1c2, type: 2}
  - {fileID: 11400000, guid: bb58b4983ff1c974f98d2c587754e7d5, type: 2}
  - {fileID: 11400000, guid: ef0bbe0ebb522d54882cbc66a1d574aa, type: 2}
  - {fileID: 11400000, guid: cff8c7d81923ffb498c7840b42462c0b, type: 2}
  - {fileID: 11400000, guid: d1d9865f8a88731428dc7f7eef018b67, type: 2}
  - {fileID: 11400000, guid: 7f73163dd7329e64da304d7e659a31b3, type: 2}
  - {fileID: 11400000, guid: acdfddc83d7ce9749b561096e6ab9133, type: 2}
  - {fileID: 11400000, guid: 007fb94faadd1db4e891c92ae82f3e00, type: 2}
