%YAML 1.1
%TAG !u! tag:unity3d.com,2011:
--- !u!114 &11400000
MonoBehaviour:
  m_ObjectHideFlags: 0
  m_CorrespondingSourceObject: {fileID: 0}
  m_PrefabInstance: {fileID: 0}
  m_PrefabAsset: {fileID: 0}
  m_GameObject: {fileID: 0}
  m_Enabled: 1
  m_EditorHideFlags: 0
  m_Script: {fileID: 11500000, guid: 688063d5cc440f640b288fb03337e40f, type: 3}
  m_Name: Trees5
  m_EditorClassIdentifier: 
  delay: 0
  duration: -1
  buffTarget: {fileID: 11400000, guid: c446239af57d34f4fbc9c0b1c5f4172a, type: 2}
  tile: {fileID: 11400000, guid: 78eee699a4ca0404183c18780122f739, type: 2}
  obsolete: 0
  coords:
  - {fileID: 11400000, guid: e7fc43f4bc1f29440aa601cdb9ff504e, type: 2}
  - {fileID: 11400000, guid: 87ce3cabd9869f2449ecf150108d251e, type: 2}
  - {fileID: 11400000, guid: c494bccef1d925f40a22681125daaabe, type: 2}
  - {fileID: 11400000, guid: 2d4707c6344c356439f6f35009b9a515, type: 2}
  - {fileID: 11400000, guid: 0f67508a688d59f4b914a76e17137cce, type: 2}
  - {fileID: 11400000, guid: 8a5a075617b397d4f84848b0b50dfb50, type: 2}
  - {fileID: 11400000, guid: 4fc304253061f8243a184741bfd235ce, type: 2}
  - {fileID: 11400000, guid: 594b05308bce6d346a38226baa372829, type: 2}
  - {fileID: 11400000, guid: 330b0a5fd309e0248bcc54c7ab6f1fef, type: 2}
  - {fileID: 11400000, guid: c4aa910edd2aa31439e8c75140a19268, type: 2}
  - {fileID: 11400000, guid: f2795c8cb4d91414d81a91c1393057a7, type: 2}
  - {fileID: 11400000, guid: 5b4ec3a92298c7547aab8fb9e8a967c1, type: 2}
  - {fileID: 11400000, guid: 4c064df74f718f847a552ba33d6bebd2, type: 2}
  - {fileID: 11400000, guid: 2a0ae7102a9591540a3d9a0647801048, type: 2}
  - {fileID: 11400000, guid: cc0ac2d088db75f46a469830cc600b4e, type: 2}
  - {fileID: 11400000, guid: a415889c2e29fb544a15ab0eebc2c4a5, type: 2}
  - {fileID: 11400000, guid: 2121b99b0e42d414bb6c4cb4c2249413, type: 2}
  - {fileID: 11400000, guid: bfd4ab7af5a904c4c988b1b27a968c28, type: 2}
  - {fileID: 11400000, guid: 6b6df398f8b30c54c84b3b3ede7b92af, type: 2}
  - {fileID: 11400000, guid: 22186bba3ebc07d45b3088d5e0b45276, type: 2}
