%YAML 1.1
%TAG !u! tag:unity3d.com,2011:
--- !u!114 &11400000
MonoBehaviour:
  m_ObjectHideFlags: 0
  m_CorrespondingSourceObject: {fileID: 0}
  m_PrefabInstance: {fileID: 0}
  m_PrefabAsset: {fileID: 0}
  m_GameObject: {fileID: 0}
  m_Enabled: 1
  m_EditorHideFlags: 0
  m_Script: {fileID: 11500000, guid: 2a5c11118fd711c49989df84d341ef44, type: 3}
  m_Name: TechDraw
  m_EditorClassIdentifier: 
  delay: 0
  duration: 5
  buffTarget: {fileID: 11400000, guid: d90be69a820180641b391f4e24a22a75, type: 2}
  deckType: {fileID: 11400000, guid: 4ff098b825d7ed94b900b5c10ab6697f, type: 2}
  shiftValue: 20
