%YAML 1.1
%TAG !u! tag:unity3d.com,2011:
--- !u!114 &11400000
MonoBehaviour:
  m_ObjectHideFlags: 0
  m_CorrespondingSourceObject: {fileID: 0}
  m_PrefabInstance: {fileID: 0}
  m_PrefabAsset: {fileID: 0}
  m_GameObject: {fileID: 0}
  m_Enabled: 1
  m_EditorHideFlags: 0
  m_Script: {fileID: 11500000, guid: 7489e2e17fce7564c9df98f3c7f826e0, type: 3}
  m_Name: Genetics Research Informed Consent
  m_EditorClassIdentifier: 
  storyType: {fileID: 11400000, guid: 68ed35d8baa941243abcf05b64a91a41, type: 2}
  properties:
  - stringValue: 'Genetics Research: Informed Consent'
    intValue: 0
    sprite: {fileID: 0}
    element: {fileID: 11400000, guid: 02dc20d1c159bdf42b57f19a2a703242, type: 2}
  - stringValue: You have a problem. These genetic engineering tests are your companies
      first time performing large scale human trials, and that means ensuring that
      you obtain proper informed consent from the participants. This is especially
      important given the highly experimental nature of the genetics altering technology
      you'll be testing. However, informed consent requires the paricipant to be given
      sufficient information so that they have complete knowledge of the potential
      benefits, risks and consequences of the experiment they are being subject to.
      Upon discussing such potential outcomes with lead scientists of the Sipian Institute
      overseeing the research, you have been made aware that since the treatment is
      so novel they themselves are not aware of, and cannot anticipate all possible
      consequences of the treatment. You wouldn't have any ethical qualms with this
      if the participants still agreed to the experiments after you had informed them
      that not all the risks are currently known, but the 'Sipian Institute' has tried
      to dissuade you from this. They argue that informing potential subjects that
      there are uknown risks may compromise the number of people willing to participate.
      This would have the effect of reducing the efficacy of the study, and reducing
      the funding that the institute is receiving to perform the research. Instead,
      if subjects ask questions, they should be assured that unintended consequences
      are highly unlikely (as is the goal of the research anyway). They have also
      indicated that the the potential loss of funding they would experience from
      reduced particpation in the study would be reflected somewhat on the money your
      company recieves. On the flip side, if you follow their instructions, they promise
      to transfer over some more skilled personal to assist you in the research process.
    intValue: 0
    sprite: {fileID: 0}
    element: {fileID: 11400000, guid: 878a357ec93122e4fb06251b95bbfe53, type: 2}
  - stringValue: 
    intValue: 0
    sprite: {fileID: 21300000, guid: 5b5857eb31acaec40bc39c40b4e2e123, type: 3}
    element: {fileID: 11400000, guid: c4b9fbd48b5ec554792c4ada1d967d70, type: 2}
  - stringValue: Ensure Proper Informed Consent
    intValue: 0
    sprite: {fileID: 0}
    element: {fileID: 11400000, guid: c110f790fbae9b6478547eae0ed06e2c, type: 2}
  - stringValue: Obtain Consent, Perhaps Not Fully Informed
    intValue: 0
    sprite: {fileID: 0}
    element: {fileID: 11400000, guid: 2ecda7393f22d6347a9a45bc97f831dc, type: 2}
  _keys:
  - Ensure Proper Informed Consent
  - Obtain Consent, Perhaps Not Fully Informed
  _values:
  - solutionText: It seems ethically obvious that you should endeavour to acquire
      complete informed consent from the participants. It is the right of the subjects
      to know all information about the experiment they are participating in, including
      the fact that it is impossible to predict all possible consequences of the genetic
      treatment. It is also your duty as an ethically responsible company to be entirely
      honest with the particpants, and only perform human experimentation under true
      informed consent. You choose to uphold these morally principles despite any
      cost that may be incurred.
    nextCard: {fileID: 0}
    nextLvlCard: {fileID: 11400000, guid: 90383c3d837799141964c88584127873, type: 2}
    CardEffects:
    - {fileID: 11400000, guid: 520457c8b823ac04ebc7465d760da946, type: 2}
    - {fileID: 11400000, guid: f696c2be2b51ec943932ae793d8b167a, type: 2}
    - {fileID: 11400000, guid: 42f0538fcd8a9e348ba8185b5f837b4c, type: 2}
    - {fileID: 11400000, guid: 88e82846a9a40d34b8a7e004be50386f, type: 2}
    ContextBundle: {fileID: 0}
  - solutionText: You don't want to risk displeasing the world-renowned genetics institute
      that has given your company this incredible opportunity. And thinking it over,
      it is an ethically justifiable decision. This research into genetic alteration
      could do an untold amount of good for all people suffering from disease in the
      world. From a utilitarian perspective, wouldn't a little ommission of truth
      about not knowing all possible risks of the treatment be worth succesfully carrying
      out this research on the necessarily large sample size of participants. It is
      your duty as a social serving company to do what is best for the people, even
      if it means not giving them the whole truth. Your company also has a duty to
      the institute to which they are subcontracted, and perhaps you should trust
      their judgement. If something unexpected was to happen, as the moderators of
      the project you could release a profession statement claiming you yourselves
      were not fully informed by the Sipian institue - hopefully deflecting most of
      the repercussions. You decide you'll follow the instructions of the Sipian institute,
      and not include the fact that not all possible consequences of the treatment
      are known when obtaining consent.
    nextCard: {fileID: 0}
    nextLvlCard: {fileID: 11400000, guid: 90383c3d837799141964c88584127873, type: 2}
    CardEffects:
    - {fileID: 11400000, guid: a453b02c08183bf4d966b107f9ee95b9, type: 2}
    - {fileID: 11400000, guid: b75181ec1184f8d4aa85cd092095813d, type: 2}
    ContextBundle: {fileID: 0}
