%YAML 1.1
%TAG !u! tag:unity3d.com,2011:
--- !u!114 &11400000
MonoBehaviour:
  m_ObjectHideFlags: 0
  m_CorrespondingSourceObject: {fileID: 0}
  m_PrefabInstance: {fileID: 0}
  m_PrefabAsset: {fileID: 0}
  m_GameObject: {fileID: 0}
  m_Enabled: 1
  m_EditorHideFlags: 0
  m_Script: {fileID: 11500000, guid: 7489e2e17fce7564c9df98f3c7f826e0, type: 3}
  m_Name: Genetics Research An Exciting Offer
  m_EditorClassIdentifier: 
  storyType: {fileID: 11400000, guid: 4ff098b825d7ed94b900b5c10ab6697f, type: 2}
  properties:
  - stringValue: 'Genetics Research: An Exciting Offer'
    intValue: 0
    sprite: {fileID: 0}
    element: {fileID: 11400000, guid: 02dc20d1c159bdf42b57f19a2a703242, type: 2}
  - stringValue: The phone starts to ring with a number and a name now familiar to
      you. Picking up and putting the phone to your ear, you hear a sophisticated
      and familiar voice. ""Good day sir, I trust you remember myself, Dr. Lorikeet.
      You've been working for my organisation, the Sipian Medical Genetics Research
      Institute."" You nod as you state your reply. ""Indeed, I remember our first
      conversation. I trust our work storing the copious amounts of genetic data was
      satisfactory?""   ""More than satisfactory, we were extremely impressed with
      your engineers understanding of the genetic information we were feeding you,
      and their clever methods for its analysis and storage"", Dr. Lorikeet praised.
      He continued, ""I call you now with a proposition to further develop our relationship,
      we have noticed %Company Names% expansion as a company, and heard you were branching
      out into other avenues of technical research and development. It so happens
      that the institute is currently in search of subsidiary industry partners to
      help undertake some of our large scale genetics research alongside us, and your
      company seems like a perfect fit. Specifically, you would be helping to perform
      the 1st stage human trials of a potential genetic cure for Cystic Fibrosis,
      and then modifying the technology alongside our engineers to improve the cure
      based on the results. The principle of the cure is the direct modification of
      a subjects somatic DNA to remove genes suspected of contibuting to CF. The work
      is well funded, and the institute will help establish the necessary facilities
      at your company to undertake this research. We are confident these medical innovations
      will do a lot of good for all of humanity in the long run, so what do you say,
      interested?"
    intValue: 0
    sprite: {fileID: 0}
    element: {fileID: 11400000, guid: 878a357ec93122e4fb06251b95bbfe53, type: 2}
  - stringValue: 
    intValue: 0
    sprite: {fileID: 21300000, guid: 5b5857eb31acaec40bc39c40b4e2e123, type: 3}
    element: {fileID: 11400000, guid: c4b9fbd48b5ec554792c4ada1d967d70, type: 2}
  - stringValue: Say Yes
    intValue: 0
    sprite: {fileID: 0}
    element: {fileID: 11400000, guid: c110f790fbae9b6478547eae0ed06e2c, type: 2}
  - stringValue: Say No
    intValue: 0
    sprite: {fileID: 0}
    element: {fileID: 11400000, guid: 2ecda7393f22d6347a9a45bc97f831dc, type: 2}
  _keys:
  - Say Yes
  - Say No
  _values:
  - solutionText: This appears to be a fantastic opportunity for your company to expand
      and do some good! Not only will this work provide the company funding, purpose
      and recognition but the utilitarian benefit of the technology being developed
      is self-evident. If utlisised correctly, the potential of this genetic modification
      technology to improve the health and well-being of people is immense. It is
      your moral philosphy and therefore that of the companies, that if it is in your
      power to help bring about a benefit to the world, it is your responsibilty to
      do so. Some people might have ethical concerns regarding this technology, and
      you do too, but your confident that your equipped to handle them when they arise.
      With all this in mind, you give your reply to the man waiting patiently on the
      other end of the phone, "We're interested".
    nextCard: {fileID: 11400000, guid: bcdefbe2c89dfe044aee31c3669d63bd, type: 2}
    nextLvlCard: {fileID: 0}
    CardEffects:
    - {fileID: 11400000, guid: 45d5cfd8a90391344ac68c8d5f5ed01f, type: 2}
    - {fileID: 11400000, guid: 5ed5fd8165ddabe4bad9bc23b87bdef0, type: 2}
    - {fileID: 11400000, guid: f514271894b27cd42a8e4ea0a33a0a1f, type: 2}
    ContextBundle: {fileID: 0}
  - solutionText: This opportunity for you company to get involved with cutting-edge
      genetic research is no doubt enticing, but this kind of work strikes an ethical
      nerve with you. You're not comfortable with the potential moral implications
      of genetic manipulation technology, and defintiely don't think your medium-sized
      company is equipped to deal with the myriad of ethical issues attached to it.
      In the short-term, is it really okay to be testing this cure on human subjects,
      when the effects of this experimental genetic cure are not entirely known and
      potentially harmful to the subjects. Sure, this cure and associated DNA altering
      technology may do a lot of good for the world but the potential for it being
      misused in the future is far too great. Designer babies, superhuman enhancements,
      blackmarket genetic manipulation, you don't want the responsibility of these
      ethical problems to lay upon your shoulders. Especially since it is kind of
      ambigous as to who would carry the blame if this research were to go wrong,
      or even the future consequences if it were to go right, would it be your company,
      or the Sipian institute, or both?  So with all this in mind, you give your reply
      to the man waiting patiently on the other end of the phone, "Sorry, not this
      time".
    nextCard: {fileID: 0}
    nextLvlCard: {fileID: 0}
    CardEffects: []
    ContextBundle: {fileID: 0}
