%YAML 1.1
%TAG !u! tag:unity3d.com,2011:
--- !u!114 &11400000
MonoBehaviour:
  m_ObjectHideFlags: 0
  m_CorrespondingSourceObject: {fileID: 0}
  m_PrefabInstance: {fileID: 0}
  m_PrefabAsset: {fileID: 0}
  m_GameObject: {fileID: 0}
  m_Enabled: 1
  m_EditorHideFlags: 0
  m_Script: {fileID: 11500000, guid: 1482e14aace101445a4b7d9b888b7f38, type: 3}
  m_Name: Lvl2Cards
  m_EditorClassIdentifier: 
  startCard: {fileID: 11400000, guid: 8ad05d1d4b8b93e48b6209060f4cdf6b, type: 2}
  presetCards:
  - {fileID: 11400000, guid: ffb8ea446510d0e49b4bdd03ad197cfe, type: 2}
