%YAML 1.1
%TAG !u! tag:unity3d.com,2011:
--- !u!114 &11400000
MonoBehaviour:
  m_ObjectHideFlags: 0
  m_CorrespondingSourceObject: {fileID: 0}
  m_PrefabInstance: {fileID: 0}
  m_PrefabAsset: {fileID: 0}
  m_GameObject: {fileID: 0}
  m_Enabled: 1
  m_EditorHideFlags: 0
  m_Script: {fileID: 11500000, guid: 7489e2e17fce7564c9df98f3c7f826e0, type: 3}
  m_Name: Surveillance Public Miraculous Medical Machines
  m_EditorClassIdentifier: 
  storyType: {fileID: 11400000, guid: 4ff098b825d7ed94b900b5c10ab6697f, type: 2}
  properties:
  - stringValue: 'Surveillance: Miraculous Medical Machines'
    intValue: 0
    sprite: {fileID: 0}
    element: {fileID: 11400000, guid: 02dc20d1c159bdf42b57f19a2a703242, type: 2}
  - stringValue: Word has spread of your companies work with those doctors on the
      visual diagnostics system, and now you're being approached by other medical
      technology companies to partner in the development of their systems. One such
      offer is from 'Dorian Biomedical', a well known and respected biomedical engineering
      institute who wants to enlist your company to work in conjuction with them to
      develop the control systems for a cancer-fighting nano-bot swarm. These nano-bots
      will be injected into the patients blood-stream, seeking out cancerous masses
      and destroy them swiftly and efficiently. After this, they are disabled remotely
      and pass out with the patients waste. The work is in it's very early stages,
      and when the systems are first ready a rigorous plan is in place for testing.
      This plan involves numerous in vitro tests, followed by animal testing of increasing
      complexity, and finally informed consentual human tests when all previous tests
      show signs of effectiveness and safety. Do you agree to work on the project.
    intValue: 0
    sprite: {fileID: 0}
    element: {fileID: 11400000, guid: 878a357ec93122e4fb06251b95bbfe53, type: 2}
  - stringValue: 
    intValue: 0
    sprite: {fileID: 21300000, guid: 5b5857eb31acaec40bc39c40b4e2e123, type: 3}
    element: {fileID: 11400000, guid: c4b9fbd48b5ec554792c4ada1d967d70, type: 2}
  - stringValue: Say Yes to Nano
    intValue: 0
    sprite: {fileID: 0}
    element: {fileID: 11400000, guid: c110f790fbae9b6478547eae0ed06e2c, type: 2}
  - stringValue: Say No to Nano
    intValue: 0
    sprite: {fileID: 0}
    element: {fileID: 11400000, guid: 2ecda7393f22d6347a9a45bc97f831dc, type: 2}
  _keys:
  - Say Yes to Nano
  - Say No to Nano
  _values:
  - solutionText: You find it difficult to discern any reason not to take on this
      project. Ethically speaking, this nano-bot technology could do much to alleviate
      the suffering of many people, improving their lives such that the utilitarian
      argument would urge that you pursue this project. You also have a responsibility
      to use the engineering capabilities of you company to serve societies best interests,
      and what better opportunity to do so than with the development of an innovative
      cancer-fighting technology. The benefits to %Company Name% are also clear, a
      good chunk of money to fund the project, and the companies name and reputation
      on a groundbreaking life-saving medical technology. You are certain taking on
      this project is a great idea, and decide to agree to work with 'Dorian Biomedical'
    nextCard: {fileID: 0}
    nextLvlCard: {fileID: 11400000, guid: 2b34f704bd6660b4abe2caa178c465f3, type: 2}
    CardEffects:
    - {fileID: 11400000, guid: bd98760e3113af9479240754bb579531, type: 2}
    - {fileID: 11400000, guid: c48d43f900fb2e746a335e6674cb663a, type: 2}
    - {fileID: 11400000, guid: 71fc00249aa7f6e469c4210884c8d2d1, type: 2}
    - {fileID: 11400000, guid: 224e0bb6362363a46ac44a3b773997a9, type: 2}
    ContextBundle: {fileID: 0}
  - solutionText: The company has enough technologies on its plate at this time and
      you are hestitant to take on yet another world changing technology. The choice
      isn't necessarily an ethical decision, the project brief suggests that helping
      to develop this technology is a good idea. Instead it's just a gut feeling that
      something might go wrong, that there might be some unforseable consequence of
      this technology if not handled properly. You find yourself worried by this vague
      prospect and decide to turn down the offer to work on this project with 'Dorian
      Bioemdical'.
    nextCard: {fileID: 0}
    nextLvlCard: {fileID: 0}
    CardEffects: []
    ContextBundle: {fileID: 0}
