%YAML 1.1
%TAG !u! tag:unity3d.com,2011:
--- !u!114 &11400000
MonoBehaviour:
  m_ObjectHideFlags: 0
  m_CorrespondingSourceObject: {fileID: 0}
  m_PrefabInstance: {fileID: 0}
  m_PrefabAsset: {fileID: 0}
  m_GameObject: {fileID: 0}
  m_Enabled: 1
  m_EditorHideFlags: 0
  m_Script: {fileID: 11500000, guid: 7489e2e17fce7564c9df98f3c7f826e0, type: 3}
  m_Name: Government Contract Another Opportunity
  m_EditorClassIdentifier: 
  storyType: {fileID: 11400000, guid: 4ff098b825d7ed94b900b5c10ab6697f, type: 2}
  properties:
  - stringValue: 'Government Contract: Another Opportunity'
    intValue: 0
    sprite: {fileID: 0}
    element: {fileID: 11400000, guid: 02dc20d1c159bdf42b57f19a2a703242, type: 2}
  - stringValue: After having made what you believed to be the ethical decision regarding
      that 'Division 51' contract, you hope that good karma will be repayed in the
      form of another, less morally compromising, opportunity for your small company
      to grow. As if your wish was granted, the phone starts to ring with a number
      and a name unfamiliar to you. Picking up, you hear a sophisticated voice proclaim,
      ""Good day sir, my name is Dr. Lorikeet and I am calling as the Chief Engineer
      at the Sipian Medical Genetics Research Institute"".  You have heard of this
      institute - they are the worlds' current foremost leaders in genetic manipulation
      technology for the purpose of curing disease and disability.  What could these
      people on the forefront of DNA alteration technology want with your small company?  ""You're
      probably wondering what my institute wants with a small company such as yours"",
      Dr. Lorikeet continues. ""Well, I'll be straightforward, we're simply looking
      to outsource some of the analysis, processing and storage of the vasts amounts
      of genetic data we collect from our reseach. The name of your company came across
      my desk as an option for the job. A connection of yours promoted your company
      as competent IT engineers with a strong morale compass. He was insistant that
      I make this phone call. He particularlly wanted me to mention that his least
      favourite number is 51.  That mean anything to you? Anyhow - I looked you up
      and must say - quite impressive!""  The doctor gasped, remembering he had left
      the job half explained. He returned to his spiel, ""This is an opportunity to
      be apart of a world-changing innovation. No need to worry about finance, trust
      that you'll be well compensated for the work, and I'm sure Sipian's connections
      will help your company grow in other ways - namely reputation. If you think
      you have the capability to handle large amounts of what is admittedly sensitive
      DNA information, we can continue this conversation?"".  Your company is still
      small, so you can't be 100% assured of your ability to handle this size of sensitive
      data and keep it secure. But you've got some smart engineers who you're confident
      could learn on the job. This knowledge, coupled with the opportunity to make
      a profit, grow your company in size and boost your reputation may make this
      potential relationship far too lucrative to give up. What do you do?"
    intValue: 0
    sprite: {fileID: 0}
    element: {fileID: 11400000, guid: 878a357ec93122e4fb06251b95bbfe53, type: 2}
  - stringValue: 
    intValue: 0
    sprite: {fileID: 21300000, guid: 5b5857eb31acaec40bc39c40b4e2e123, type: 3}
    element: {fileID: 11400000, guid: c4b9fbd48b5ec554792c4ada1d967d70, type: 2}
  - stringValue: Say Yes
    intValue: 0
    sprite: {fileID: 0}
    element: {fileID: 11400000, guid: c110f790fbae9b6478547eae0ed06e2c, type: 2}
  - stringValue: Say No
    intValue: 0
    sprite: {fileID: 0}
    element: {fileID: 11400000, guid: 2ecda7393f22d6347a9a45bc97f831dc, type: 2}
  _keys:
  - Say Yes
  - Say No
  _values:
  - solutionText: Being a small company still building up your infrastructure, you
      can't completely guarantee the safety of the genetic data you would be processing
      and storing. Despite this, you are confident in your engineers adaptability
      and dedication to self learning. This opportunity will motivate their self-development,
      and hopefully lead to a sufficiently secure system. Also taking into account
      the significant boost in profit and reputation this venture would provide, you
      feel it would be crazy not to accept the offer. Having made your decision, you
      reply to Dr. Lorikeet, "I'm listening."
    nextCard: {fileID: 0}
    nextLvlCard: {fileID: 11400000, guid: f5eca18c886ebe042aaea21d96b934ae, type: 2}
    CardEffects:
    - {fileID: 11400000, guid: 72b91f2659b975447b9123e1fc45f500, type: 2}
    - {fileID: 11400000, guid: d1339587bc0a2e74391032b6099c6e78, type: 2}
    - {fileID: 11400000, guid: 3effc7781587e8c408efa7f3eda2f9f7, type: 2}
    - {fileID: 11400000, guid: 7b3b45211696b99429a7bd2c86a74222, type: 2}
    ContextBundle: {fileID: 0}
  - solutionText: Despite the companies roaring success with current projects, you
      have never dared deal with something of this magnitude before. As a world renowned
      genetics company, storing sufficiently confidential and detailed information,
      you expect this particular job to be a gleaming target for nafarious hackers
      of all kinds. Lacking experience, you doubt the ability of your software engineers
      to provide robust security at this scale. This vulnerability is not a risk you
      can morally justify to yourself. Your percieved duty as an engineer is to ensure
      you have the necessary competencies to succesfully deliver projects that meet
      minimum performance benchmarks. It would be dishonest to falsely claim to the
      Sipian insitute that you are equipped to handle secure storage of that much
      DNA data. Deciding you would feel far to uncomfortable accepting this work when
      you can't entirely guarantee the security of the data, you reply to Dr. Lorikeet
      "My apologies, but we're not interested."
    nextCard: {fileID: 0}
    nextLvlCard: {fileID: 0}
    CardEffects: []
    ContextBundle: {fileID: 0}
