%YAML 1.1
%TAG !u! tag:unity3d.com,2011:
--- !u!114 &11400000
MonoBehaviour:
  m_ObjectHideFlags: 0
  m_CorrespondingSourceObject: {fileID: 0}
  m_PrefabInstance: {fileID: 0}
  m_PrefabAsset: {fileID: 0}
  m_GameObject: {fileID: 0}
  m_Enabled: 1
  m_EditorHideFlags: 0
  m_Script: {fileID: 11500000, guid: 7489e2e17fce7564c9df98f3c7f826e0, type: 3}
  m_Name: Good AI Ending
  m_EditorClassIdentifier: 
  storyType: {fileID: 11400000, guid: cded83258fcfa7945a8faf7894a19509, type: 2}
  properties:
  - stringValue: 'Ending: Robotic Utopia'
    intValue: 0
    sprite: {fileID: 0}
    element: {fileID: 11400000, guid: 02dc20d1c159bdf42b57f19a2a703242, type: 2}
  - stringValue: As a result of your choices in the creation of AI, a harmonious co-existance
      has formed between human and AI. Society has grown to see human and AI working
      together, using the strengths and capabilities of AI beings to benefit all peoples.
      Your company allowing the fledgling AI beings rights equal to humans has allowed
      this new future of peace and prosperity to emerge.
    intValue: 0
    sprite: {fileID: 0}
    element: {fileID: 11400000, guid: 878a357ec93122e4fb06251b95bbfe53, type: 2}
  - stringValue: 
    intValue: 0
    sprite: {fileID: 21300000, guid: 5b5857eb31acaec40bc39c40b4e2e123, type: 3}
    element: {fileID: 11400000, guid: c4b9fbd48b5ec554792c4ada1d967d70, type: 2}
  _keys: []
  _values: []
