%YAML 1.1
%TAG !u! tag:unity3d.com,2011:
--- !u!114 &11400000
MonoBehaviour:
  m_ObjectHideFlags: 0
  m_CorrespondingSourceObject: {fileID: 0}
  m_PrefabInstance: {fileID: 0}
  m_PrefabAsset: {fileID: 0}
  m_GameObject: {fileID: 0}
  m_Enabled: 1
  m_EditorHideFlags: 0
  m_Script: {fileID: 11500000, guid: 7489e2e17fce7564c9df98f3c7f826e0, type: 3}
  m_Name: MehEnding
  m_EditorClassIdentifier: 
  storyType: {fileID: 11400000, guid: 6d80a52ce8e2e604b8ce64699d301726, type: 2}
  properties:
  - stringValue: 'Ending: A Mediocre Existance'
    intValue: 0
    sprite: {fileID: 0}
    element: {fileID: 11400000, guid: 02dc20d1c159bdf42b57f19a2a703242, type: 2}
  - stringValue: Time passed and your business continued to be succesful as an ordinary
      global technology company. However, you never really left any lasting impact
      on the course of humanity. If you had any innovations they were absorbed into
      humanities continued technological advancement, but society never really rose
      to any utopian heights or fell into any dystopian pits. In the end, the world
      would probably have ended up in the middling place it was without your companies
      input.
    intValue: 0
    sprite: {fileID: 0}
    element: {fileID: 11400000, guid: 878a357ec93122e4fb06251b95bbfe53, type: 2}
  - stringValue: 
    intValue: 0
    sprite: {fileID: 21300000, guid: 5b5857eb31acaec40bc39c40b4e2e123, type: 3}
    element: {fileID: 11400000, guid: c4b9fbd48b5ec554792c4ada1d967d70, type: 2}
  _keys: []
  _values: []
