%YAML 1.1
%TAG !u! tag:unity3d.com,2011:
--- !u!114 &11400000
MonoBehaviour:
  m_ObjectHideFlags: 0
  m_CorrespondingSourceObject: {fileID: 0}
  m_PrefabInstance: {fileID: 0}
  m_PrefabAsset: {fileID: 0}
  m_GameObject: {fileID: 0}
  m_Enabled: 1
  m_EditorHideFlags: 0
  m_Script: {fileID: 11500000, guid: 7489e2e17fce7564c9df98f3c7f826e0, type: 3}
  m_Name: SuperSecretDinoEnding
  m_EditorClassIdentifier: 
  storyType: {fileID: 11400000, guid: 6d80a52ce8e2e604b8ce64699d301726, type: 2}
  properties:
  - stringValue: 'Ending: Pre-Historic Plunge'
    intValue: 0
    sprite: {fileID: 0}
    element: {fileID: 11400000, guid: 02dc20d1c159bdf42b57f19a2a703242, type: 2}
  - stringValue: You stare out the window of your office with a mix of abject shock,
      horror and amazement fixed upon your face. "How could it have all gone so wrong?"
      you think as the view through the glass displays a scene paralleled only by
      the wildest nightmares of small children. Flocks of pterodactyls swarm the skies,
      diving peridocally into the crowds of panicking masses below to snatch up their
      prey. Packs of velociraptors tear through the flesh and bone of all  the unlucky
      that cross their path. Tyrannosaurus rex roar wildly as the topples cars and
      crush people underfoot. How had it come to this?  This is the consequence of
      all that genetic manipulation technology you helped developed. You allowed its
      use to be opensource, and somehow, somewhere, someone used it to clone bloody
      dinosaurs. Initially the creatures were docile and controlled, but once the
      dinosaurs discovered that the imbecile who created them had forgot to remove
      the DNA that coded for their reproductive capabilities, they became primal and
      began to reproduce and rampage. As time passed, the whole world was overrun,
      as the scene outside your window proves. Well, at least human society went out
      in an interesting way, who would have thought it would be dinosaurs?
    intValue: 0
    sprite: {fileID: 0}
    element: {fileID: 11400000, guid: 878a357ec93122e4fb06251b95bbfe53, type: 2}
  - stringValue: 
    intValue: 0
    sprite: {fileID: 21300000, guid: 5b5857eb31acaec40bc39c40b4e2e123, type: 3}
    element: {fileID: 11400000, guid: c4b9fbd48b5ec554792c4ada1d967d70, type: 2}
  _keys: []
  _values: []
