%YAML 1.1
%TAG !u! tag:unity3d.com,2011:
--- !u!114 &11400000
MonoBehaviour:
  m_ObjectHideFlags: 0
  m_CorrespondingSourceObject: {fileID: 0}
  m_PrefabInstance: {fileID: 0}
  m_PrefabAsset: {fileID: 0}
  m_GameObject: {fileID: 0}
  m_Enabled: 1
  m_EditorHideFlags: 0
  m_Script: {fileID: 11500000, guid: 688063d5cc440f640b288fb03337e40f, type: 3}
  m_Name: TopBotEdge
  m_EditorClassIdentifier: 
  delay: 0
  duration: -1
  buffTarget: {fileID: 0}
  tile: {fileID: 11400000, guid: fcec7a65edb605542a54bc9ebaa07fee, type: 2}
  obsolete: 0
  coords:
  - {fileID: 11400000, guid: 9d94cf5e5505fc6489e0fe29f3c8ceab, type: 2}
  - {fileID: 11400000, guid: 9454eedb970e9bd4695b1bb107bb688c, type: 2}
