%YAML 1.1
%TAG !u! tag:unity3d.com,2011:
--- !u!114 &11400000
MonoBehaviour:
  m_ObjectHideFlags: 0
  m_CorrespondingSourceObject: {fileID: 0}
  m_PrefabInstance: {fileID: 0}
  m_PrefabAsset: {fileID: 0}
  m_GameObject: {fileID: 0}
  m_Enabled: 1
  m_EditorHideFlags: 0
  m_Script: {fileID: 11500000, guid: 688063d5cc440f640b288fb03337e40f, type: 3}
  m_Name: TopDirt
  m_EditorClassIdentifier: 
  delay: 0
  duration: -1
  buffTarget: {fileID: 0}
  tile: {fileID: 11400000, guid: 78afd3e3b5159464ba5534cbf614c3f9, type: 2}
  obsolete: 0
  coords:
  - {fileID: 11400000, guid: 6702f742c1f56514bbf86b1b6f862bf5, type: 2}
  - {fileID: 11400000, guid: f596361770ea55c4a99498c2ce9ecbca, type: 2}
