%YAML 1.1
%TAG !u! tag:unity3d.com,2011:
--- !u!114 &11400000
MonoBehaviour:
  m_ObjectHideFlags: 0
  m_CorrespondingSourceObject: {fileID: 0}
  m_PrefabInstance: {fileID: 0}
  m_PrefabAsset: {fileID: 0}
  m_GameObject: {fileID: 0}
  m_Enabled: 1
  m_EditorHideFlags: 0
  m_Script: {fileID: 11500000, guid: 688063d5cc440f640b288fb03337e40f, type: 3}
  m_Name: ConcreteWallsB1
  m_EditorClassIdentifier: 
  delay: 1
  duration: 1
  buffTarget: {fileID: 11400000, guid: fab51bdbd87655649a10cc0263474cff, type: 2}
  tile: {fileID: 11400000, guid: 6f3c3c23cfdbcb346aa9ce72ce5a9343, type: 2}
  obsolete: 0
  coords:
  - {fileID: 11400000, guid: feb4ab6fd96d59848a69082a2b7ec73e, type: 2}
