%YAML 1.1
%TAG !u! tag:unity3d.com,2011:
--- !u!114 &11400000
MonoBehaviour:
  m_ObjectHideFlags: 0
  m_CorrespondingSourceObject: {fileID: 0}
  m_PrefabInstance: {fileID: 0}
  m_PrefabAsset: {fileID: 0}
  m_GameObject: {fileID: 0}
  m_Enabled: 1
  m_EditorHideFlags: 0
  m_Script: {fileID: 11500000, guid: 688063d5cc440f640b288fb03337e40f, type: 3}
  m_Name: TopBotREdge
  m_EditorClassIdentifier: 
  delay: 0
  duration: -1
  buffTarget: {fileID: 0}
  tile: {fileID: 11400000, guid: 31228db0b63c92144ac8a2c2a1780375, type: 2}
  obsolete: 0
  coords:
  - {fileID: 11400000, guid: 77793a66b6313b440ae913e4c93ff0b4, type: 2}
  - {fileID: 11400000, guid: 77793a66b6313b440ae913e4c93ff0b4, type: 2}
