%YAML 1.1
%TAG !u! tag:unity3d.com,2011:
--- !u!114 &11400000
MonoBehaviour:
  m_ObjectHideFlags: 0
  m_CorrespondingSourceObject: {fileID: 0}
  m_PrefabInstance: {fileID: 0}
  m_PrefabAsset: {fileID: 0}
  m_GameObject: {fileID: 0}
  m_Enabled: 1
  m_EditorHideFlags: 0
  m_Script: {fileID: 11500000, guid: 688063d5cc440f640b288fb03337e40f, type: 3}
  m_Name: TopDirt
  m_EditorClassIdentifier: 
  delay: 0
  duration: -1
  buffTarget: {fileID: 0}
  tile: {fileID: 11400000, guid: 78afd3e3b5159464ba5534cbf614c3f9, type: 2}
  obsolete: 0
  coords:
  - {fileID: 11400000, guid: 3c97c18bba3181b41be975629332a0f9, type: 2}
  - {fileID: 11400000, guid: e42ddc5cff02df1439df11484615c879, type: 2}
  - {fileID: 11400000, guid: d1d9865f8a88731428dc7f7eef018b67, type: 2}
  - {fileID: 11400000, guid: d1d9865f8a88731428dc7f7eef018b67, type: 2}
