%YAML 1.1
%TAG !u! tag:unity3d.com,2011:
--- !u!114 &11400000
MonoBehaviour:
  m_ObjectHideFlags: 0
  m_CorrespondingSourceObject: {fileID: 0}
  m_PrefabInstance: {fileID: 0}
  m_PrefabAsset: {fileID: 0}
  m_GameObject: {fileID: 0}
  m_Enabled: 1
  m_EditorHideFlags: 0
  m_Script: {fileID: 11500000, guid: 5007c7aa8ed08db47928a57b4bdd480f, type: 3}
  m_Name: FinanceBoost
  m_EditorClassIdentifier: 
  delay: 0
  duration: 1
  buffTarget: {fileID: 11400000, guid: fdadeeaef78a36943b2260bf6ce2cdc6, type: 2}
  sum: 20000
