%YAML 1.1
%TAG !u! tag:unity3d.com,2011:
--- !u!114 &11400000
MonoBehaviour:
  m_ObjectHideFlags: 0
  m_CorrespondingSourceObject: {fileID: 0}
  m_PrefabInstance: {fileID: 0}
  m_PrefabAsset: {fileID: 0}
  m_GameObject: {fileID: 0}
  m_Enabled: 1
  m_EditorHideFlags: 0
  m_Script: {fileID: 11500000, guid: 7489e2e17fce7564c9df98f3c7f826e0, type: 3}
  m_Name: Quantum Tree
  m_EditorClassIdentifier: 
  storyType: {fileID: 11400000, guid: 68ed35d8baa941243abcf05b64a91a41, type: 2}
  properties:
  - stringValue: Quantum Tree
    intValue: 0
    sprite: {fileID: 0}
    element: {fileID: 11400000, guid: 02dc20d1c159bdf42b57f19a2a703242, type: 2}
  - stringValue: Quantum tech has become a reality these past few months, and your
      team has been at the forefront of its development. You finally have a Quantum
      computer up and running in your lab and have been using it to observe chemical
      crystal structures. The time has been hard at it for months when they present
      their first design to you. Its a tree. Well, more than a tree - its a mechanical
      structure that utilises sunlight to catayse a welath of different chemical reactions.
      Most noticeably on the list is the conversion of CO2 back into a coal like substance
      and pure oxygen. The chemical structures resolved by your quantum algorithms
      have made it possible to make fossil fuels a renewable resource.  But now the
      real question arises, should you do it?
    intValue: 0
    sprite: {fileID: 0}
    element: {fileID: 11400000, guid: 878a357ec93122e4fb06251b95bbfe53, type: 2}
  - stringValue: 
    intValue: 0
    sprite: {fileID: 21300000, guid: 5b5857eb31acaec40bc39c40b4e2e123, type: 3}
    element: {fileID: 11400000, guid: c4b9fbd48b5ec554792c4ada1d967d70, type: 2}
  - stringValue: 1 Detox Please, No Sugar
    intValue: 0
    sprite: {fileID: 0}
    element: {fileID: 11400000, guid: c110f790fbae9b6478547eae0ed06e2c, type: 2}
  - stringValue: Team of the Trees
    intValue: 0
    sprite: {fileID: 0}
    element: {fileID: 11400000, guid: 2ecda7393f22d6347a9a45bc97f831dc, type: 2}
  _keys:
  - 1 Detox Please, No Sugar
  - Team of the Trees
  _values:
  - solutionText: The world is dying to the unknown consequences created by the industrial
      revolution. The depletion of carbon rich ore deposits is leading to the inevitable
      grinding halt of many commodities we take for granted today, as they currently
      stand. By introducing these high volume, high rate detoxifiers we could sell
      the generated coal. Not only would this turn a nice profit, we'ld be supporting
      economic and social stability but allowing the continued developement of plastics.
      The utility of establishing these fields of electronic trees is a valid net
      gain that you believe outweighs the cost of its resource and land demands.
    nextCard: {fileID: 0}
    nextLvlCard: {fileID: 0}
    CardEffects:
    - {fileID: 11400000, guid: 9620628e5e1bca84abc944c49549d12b, type: 2}
    - {fileID: 11400000, guid: 2a962a782b62dc841af8d660fef3e030, type: 2}
    - {fileID: 11400000, guid: 6145ac2dbc2bbaf45b95a215dd835a1e, type: 2}
    ContextBundle: {fileID: 11400000, guid: d2ef92dc08775c34a88383d1cc6bb0fa, type: 2}
  - solutionText: "It looks good on paper, it sounds good to the ear, but to the mind
      that sees past the initial euphoria of the idea, you begin to see the costs
      of such a project. You are a big believer in promoting a renewable future. Releasing
      a product that promotes further mining, more plastic and pollutant heavy industries
      would undermine any benefits detoxifying the trees could accomplish. You treasure
      the environment and its beauty and so by those principles must decline this
      project and reject it as non-virtuous.\t"
    nextCard: {fileID: 0}
    nextLvlCard: {fileID: 0}
    CardEffects: []
    ContextBundle: {fileID: 0}
