%YAML 1.1
%TAG !u! tag:unity3d.com,2011:
--- !u!114 &11400000
MonoBehaviour:
  m_ObjectHideFlags: 0
  m_CorrespondingSourceObject: {fileID: 0}
  m_PrefabInstance: {fileID: 0}
  m_PrefabAsset: {fileID: 0}
  m_GameObject: {fileID: 0}
  m_Enabled: 1
  m_EditorHideFlags: 0
  m_Script: {fileID: 11500000, guid: 7489e2e17fce7564c9df98f3c7f826e0, type: 3}
  m_Name: Business Begins Marketing
  m_EditorClassIdentifier: 
  storyType: {fileID: 11400000, guid: 4d57942f06bbb7c4288ea13c0ac1c450, type: 2}
  properties:
  - stringValue: 'Business Begins: Marketing'
    intValue: 0
    sprite: {fileID: 0}
    element: {fileID: 11400000, guid: 02dc20d1c159bdf42b57f19a2a703242, type: 2}
  - stringValue: 'You chew on your pen in idle indecision, pondering the inconvience
      of last nights discovery. You were meant to be performing a routine advertisement
      approval - nothing arduous, just a quick read here and a click of a button there.
      If only that was what had happened, but by accident you clicked on a news article,
      sitting neatly next to the usual link in the search engine. Long story short:
      turns out the company you have been outsourcing your marketing too has been
      investing their income into an international black market drug trade. Supposedly
      investing in such a trade is low risk and highly profitable.  Due to the inability
      for legal authorities to convict the company, your relationship with them can
      continue unhindered, yet the situation leads to an obscure question.  Is it
      okay to be in partnership with a company whose buisness model contradicts your
      own personal values? Your business would provide less than 1% of their annual
      profit, and you currently hold no sway in the industry - so leaving will have
      no real impact on the decisions of other companies. Furthermore, the drug trade
      has arguably beneficial impacts as well as the obvious negative ones. Despite
      the influx of toxic drugs such as ice and cocaine - you have more then one friend
      internationally who has indirectly used the trade to access medicinal marijuana
      and other such progressive treatments. Legislation is too slow to save the sick,
      and this illegal trade - while the cause of a lot of addictive deaths - has
      brought healing to some.'
    intValue: 0
    sprite: {fileID: 0}
    element: {fileID: 11400000, guid: 878a357ec93122e4fb06251b95bbfe53, type: 2}
  - stringValue: 
    intValue: 0
    sprite: {fileID: 21300000, guid: b201ba92e4f16df4593b0caf1ab2fedf, type: 3}
    element: {fileID: 11400000, guid: c4b9fbd48b5ec554792c4ada1d967d70, type: 2}
  - stringValue: Devil's Advocate
    intValue: 0
    sprite: {fileID: 0}
    element: {fileID: 11400000, guid: c110f790fbae9b6478547eae0ed06e2c, type: 2}
  - stringValue: Greater Good
    intValue: 0
    sprite: {fileID: 0}
    element: {fileID: 11400000, guid: 2ecda7393f22d6347a9a45bc97f831dc, type: 2}
  _keys:
  - Devil's Advocate
  - Greater Good
  _values:
  - solutionText: Despite feeling uncomfortable, you allow for the possibility that
      this advertisement company has altruistic motives. In an attempt to understand
      this companies possible justification of their choice, you select a specific
      set of values that focuses on the intrinsic worth of human life. By stressing
      the importance of individual choice and equitiable access to goods you begin
      to grasp how the argument would be formed. One could argue, that by providing
      monetary support to the drug trade, illicit medicinal drugs become available
      to those in need of the substances barred by legality. Now that such medicine
      is accessible, the  responsibility for the proper use, consumption and dosage
      of the material falls onto the individual. Hence, by supporting the drug trade,
      you have empowered the sick to recieve healing at their own discression. Due
      to the nature of the virtue of freedom of choice, you have then washed your
      hands of any individuals who chose to abuse the access to such substances. Satisfied
      by the justification provided by this framework of thought, you decide to remain
      as an associate of this advertisement company - and personally hope that the
      count of abusers remain low.
    nextCard: {fileID: 0}
    nextLvlCard: {fileID: 0}
    CardEffects:
    - {fileID: 11400000, guid: ada7688f66f96d540bfe631e9381a6c4, type: 2}
    - {fileID: 11400000, guid: 9d1953c524f14f5479733ffcc1c71786, type: 2}
    ContextBundle: {fileID: 0}
  - solutionText: Substance abuse is a widespread counter cultural activity that causes
      public instability through the pain it brings to communities of people. Furthermore,
      the choice to begin using a substance doesn't necessarily imply that following
      choices to use the substance are of ones 'free' will - as abused drugs are notoriously
      addictive. You do admit that there are plenty of positive cases, where access
      to progressive medicines have saved lifes, yet their is a great imbalance between
      the two and you believe it is clear to see that the drug trade does more harm
      than good. Your current indecision with breaking ties to the advertisement company
      has simply been due to a lack of noticeable impact for such an action. In a
      moment of inspiration you realise you can change that. The real issue causing
      your pause, isn't primarily the advertisement company funding, but the negative
      impact of addictive, dangerous drugs. You decide to use the regained funds from
      lost advertising and reinvest it in the education of the public about illegal
      drug use, its impacts and its dangers. The net gain in public welfare from such
      a choice, more then justifies the utility of your decision to leave.
    nextCard: {fileID: 0}
    nextLvlCard: {fileID: 0}
    CardEffects:
    - {fileID: 11400000, guid: 323f453439a2f33489753e4188998cbf, type: 2}
    - {fileID: 11400000, guid: 2e644cce2855e0347ad779cf69afb7fe, type: 2}
    ContextBundle: {fileID: 0}
