%YAML 1.1
%TAG !u! tag:unity3d.com,2011:
--- !u!114 &11400000
MonoBehaviour:
  m_ObjectHideFlags: 0
  m_CorrespondingSourceObject: {fileID: 0}
  m_PrefabInstance: {fileID: 0}
  m_PrefabAsset: {fileID: 0}
  m_GameObject: {fileID: 0}
  m_Enabled: 1
  m_EditorHideFlags: 0
  m_Script: {fileID: 11500000, guid: 688063d5cc440f640b288fb03337e40f, type: 3}
  m_Name: ConcreteWallsB6
  m_EditorClassIdentifier: 
  delay: 5
  duration: 1
  buffTarget: {fileID: 11400000, guid: 650f6e59886baad4ebbcbde68deb4fd3, type: 2}
  tile: {fileID: 11400000, guid: 4fa33caf24c193c45ad4845de53eb39c, type: 2}
  obsolete: 1
  coords:
  - {fileID: 11400000, guid: 5aaf32f70c4665f47a11facc0ac800d2, type: 2}
  - {fileID: 11400000, guid: 30a09d1818be0424a813b037e935c3c4, type: 2}
  - {fileID: 11400000, guid: 8af030cf35afb754090eb4a7c9cf2250, type: 2}
  - {fileID: 11400000, guid: 8c3a389f2e3d6b14284b44e78ad16954, type: 2}
  - {fileID: 11400000, guid: d723685b4accf594baa73fcf2eabd111, type: 2}
  - {fileID: 11400000, guid: c9aa513e395700943b402c5b1aa51fe9, type: 2}
