%YAML 1.1
%TAG !u! tag:unity3d.com,2011:
--- !u!1 &3286334962474121055
GameObject:
  m_ObjectHideFlags: 0
  m_CorrespondingSourceObject: {fileID: 0}
  m_PrefabInstance: {fileID: 0}
  m_PrefabAsset: {fileID: 0}
  serializedVersion: 6
  m_Component:
  - component: {fileID: 940542394956987457}
  - component: {fileID: 4987570038909330160}
  - component: {fileID: 804828165833236195}
  m_Layer: 31
  m_Name: Layer1
  m_TagString: Untagged
  m_Icon: {fileID: 0}
  m_NavMeshLayer: 0
  m_StaticEditorFlags: 0
  m_IsActive: 1
--- !u!4 &940542394956987457
Transform:
  m_ObjectHideFlags: 0
  m_CorrespondingSourceObject: {fileID: 0}
  m_PrefabInstance: {fileID: 0}
  m_PrefabAsset: {fileID: 0}
  m_GameObject: {fileID: 3286334962474121055}
  m_LocalRotation: {x: -0, y: -0, z: -0, w: 1}
  m_LocalPosition: {x: 0, y: 0, z: 0}
  m_LocalScale: {x: 1, y: 1, z: 1}
  m_Children: []
  m_Father: {fileID: 8218550911900899400}
  m_RootOrder: 0
  m_LocalEulerAnglesHint: {x: 0, y: 0, z: 0}
--- !u!1839735485 &4987570038909330160
Tilemap:
  m_ObjectHideFlags: 0
  m_CorrespondingSourceObject: {fileID: 0}
  m_PrefabInstance: {fileID: 0}
  m_PrefabAsset: {fileID: 0}
  m_GameObject: {fileID: 3286334962474121055}
  m_Enabled: 1
  m_Tiles:
  - first: {x: -7, y: -2, z: 0}
    second:
      m_TileIndex: 14
      m_TileSpriteIndex: 14
      m_TileMatrixIndex: 0
      m_TileColorIndex: 0
      m_ObjectToInstantiate: {fileID: 0}
      m_TileFlags: 1
      m_ColliderType: 1
  - first: {x: 1, y: -2, z: 0}
    second:
      m_TileIndex: 16
      m_TileSpriteIndex: 18
      m_TileMatrixIndex: 0
      m_TileColorIndex: 0
      m_ObjectToInstantiate: {fileID: 0}
      m_TileFlags: 1
      m_ColliderType: 1
  - first: {x: 2, y: -2, z: 0}
    second:
      m_TileIndex: 19
      m_TileSpriteIndex: 19
      m_TileMatrixIndex: 0
      m_TileColorIndex: 0
      m_ObjectToInstantiate: {fileID: 0}
      m_TileFlags: 1
      m_ColliderType: 1
  - first: {x: 3, y: -2, z: 0}
    second:
      m_TileIndex: 20
      m_TileSpriteIndex: 20
      m_TileMatrixIndex: 0
      m_TileColorIndex: 0
      m_ObjectToInstantiate: {fileID: 0}
      m_TileFlags: 1
      m_ColliderType: 1
  - first: {x: 4, y: -2, z: 0}
    second:
      m_TileIndex: 21
      m_TileSpriteIndex: 21
      m_TileMatrixIndex: 0
      m_TileColorIndex: 0
      m_ObjectToInstantiate: {fileID: 0}
      m_TileFlags: 1
      m_ColliderType: 1
  - first: {x: -7, y: -1, z: 0}
    second:
      m_TileIndex: 10
      m_TileSpriteIndex: 10
      m_TileMatrixIndex: 0
      m_TileColorIndex: 0
      m_ObjectToInstantiate: {fileID: 0}
      m_TileFlags: 1
      m_ColliderType: 1
  - first: {x: -6, y: -1, z: 0}
    second:
      m_TileIndex: 11
      m_TileSpriteIndex: 11
      m_TileMatrixIndex: 0
      m_TileColorIndex: 0
      m_ObjectToInstantiate: {fileID: 0}
      m_TileFlags: 1
      m_ColliderType: 1
  - first: {x: -5, y: -1, z: 0}
    second:
      m_TileIndex: 12
      m_TileSpriteIndex: 12
      m_TileMatrixIndex: 0
      m_TileColorIndex: 0
      m_ObjectToInstantiate: {fileID: 0}
      m_TileFlags: 1
      m_ColliderType: 1
  - first: {x: -4, y: -1, z: 0}
    second:
      m_TileIndex: 13
      m_TileSpriteIndex: 13
      m_TileMatrixIndex: 0
      m_TileColorIndex: 0
      m_ObjectToInstantiate: {fileID: 0}
      m_TileFlags: 1
      m_ColliderType: 1
  - first: {x: 1, y: -1, z: 0}
    second:
      m_TileIndex: 17
      m_TileSpriteIndex: 16
      m_TileMatrixIndex: 0
      m_TileColorIndex: 0
      m_ObjectToInstantiate: {fileID: 0}
      m_TileFlags: 1
      m_ColliderType: 1
  - first: {x: 2, y: -1, z: 0}
    second:
      m_TileIndex: 18
      m_TileSpriteIndex: 17
      m_TileMatrixIndex: 0
      m_TileColorIndex: 0
      m_ObjectToInstantiate: {fileID: 0}
      m_TileFlags: 1
      m_ColliderType: 1
  - first: {x: -7, y: 0, z: 0}
    second:
      m_TileIndex: 6
      m_TileSpriteIndex: 6
      m_TileMatrixIndex: 0
      m_TileColorIndex: 0
      m_ObjectToInstantiate: {fileID: 0}
      m_TileFlags: 1
      m_ColliderType: 1
  - first: {x: -6, y: 0, z: 0}
    second:
      m_TileIndex: 7
      m_TileSpriteIndex: 7
      m_TileMatrixIndex: 0
      m_TileColorIndex: 0
      m_ObjectToInstantiate: {fileID: 0}
      m_TileFlags: 1
      m_ColliderType: 1
  - first: {x: -5, y: 0, z: 0}
    second:
      m_TileIndex: 8
      m_TileSpriteIndex: 8
      m_TileMatrixIndex: 0
      m_TileColorIndex: 0
      m_ObjectToInstantiate: {fileID: 0}
      m_TileFlags: 1
      m_ColliderType: 1
  - first: {x: -4, y: 0, z: 0}
    second:
      m_TileIndex: 9
      m_TileSpriteIndex: 9
      m_TileMatrixIndex: 0
      m_TileColorIndex: 0
      m_ObjectToInstantiate: {fileID: 0}
      m_TileFlags: 1
      m_ColliderType: 1
  - first: {x: -2, y: 0, z: 0}
    second:
      m_TileIndex: 1
      m_TileSpriteIndex: 1
      m_TileMatrixIndex: 0
      m_TileColorIndex: 0
      m_ObjectToInstantiate: {fileID: 0}
      m_TileFlags: 1
      m_ColliderType: 1
  - first: {x: -1, y: 0, z: 0}
    second:
      m_TileIndex: 0
      m_TileSpriteIndex: 0
      m_TileMatrixIndex: 0
      m_TileColorIndex: 0
      m_ObjectToInstantiate: {fileID: 0}
      m_TileFlags: 1
      m_ColliderType: 1
  - first: {x: -7, y: 1, z: 0}
    second:
      m_TileIndex: 2
      m_TileSpriteIndex: 2
      m_TileMatrixIndex: 0
      m_TileColorIndex: 0
      m_ObjectToInstantiate: {fileID: 0}
      m_TileFlags: 1
      m_ColliderType: 1
  - first: {x: -6, y: 1, z: 0}
    second:
      m_TileIndex: 3
      m_TileSpriteIndex: 3
      m_TileMatrixIndex: 0
      m_TileColorIndex: 0
      m_ObjectToInstantiate: {fileID: 0}
      m_TileFlags: 1
      m_ColliderType: 1
  - first: {x: -5, y: 1, z: 0}
    second:
      m_TileIndex: 4
      m_TileSpriteIndex: 4
      m_TileMatrixIndex: 0
      m_TileColorIndex: 0
      m_ObjectToInstantiate: {fileID: 0}
      m_TileFlags: 1
      m_ColliderType: 1
  - first: {x: -4, y: 1, z: 0}
    second:
      m_TileIndex: 5
      m_TileSpriteIndex: 5
      m_TileMatrixIndex: 0
      m_TileColorIndex: 0
      m_ObjectToInstantiate: {fileID: 0}
      m_TileFlags: 1
      m_ColliderType: 1
  - first: {x: 1, y: 1, z: 0}
    second:
      m_TileIndex: 15
      m_TileSpriteIndex: 15
      m_TileMatrixIndex: 0
      m_TileColorIndex: 0
      m_ObjectToInstantiate: {fileID: 0}
      m_TileFlags: 0
      m_ColliderType: 0
  m_AnimatedTiles:
  - first: {x: 1, y: 1, z: 0}
    second:
      m_AnimatedSprites:
      - {fileID: 21300000, guid: a8bd40cc5f6111f46921025373646673, type: 3}
      - {fileID: 21300000, guid: a8bd40cc5f6111f46921025373646673, type: 3}
      - {fileID: 21300000, guid: 139217e4878013640a164a92a79896e8, type: 3}
      - {fileID: 21300000, guid: 7bde7a976ce973243b714bee8daeb181, type: 3}
      - {fileID: 21300000, guid: 96320ab203fbe9148ab412b408a14893, type: 3}
      - {fileID: 21300000, guid: e3c2ded18c1c092419d82d080f7b5807, type: 3}
      - {fileID: 21300000, guid: 85bf14b587f5ae34ebc31095f1aa5b62, type: 3}
      - {fileID: 21300000, guid: 85bf14b587f5ae34ebc31095f1aa5b62, type: 3}
      - {fileID: 21300000, guid: de8099807d40845419aa739f83c053fe, type: 3}
      - {fileID: 21300000, guid: de8099807d40845419aa739f83c053fe, type: 3}
      - {fileID: 21300000, guid: cff675fa7976055488ee7b0279571eca, type: 3}
      - {fileID: 21300000, guid: cff675fa7976055488ee7b0279571eca, type: 3}
      - {fileID: 21300000, guid: cff675fa7976055488ee7b0279571eca, type: 3}
      - {fileID: 21300000, guid: a4c6882df14ef6e4ab7eb3f86b970ca9, type: 3}
      - {fileID: 21300000, guid: a4c6882df14ef6e4ab7eb3f86b970ca9, type: 3}
      - {fileID: 21300000, guid: a4c6882df14ef6e4ab7eb3f86b970ca9, type: 3}
      - {fileID: 21300000, guid: b9df1b1a20c108640aef91de9d73c3e7, type: 3}
      - {fileID: 21300000, guid: b9df1b1a20c108640aef91de9d73c3e7, type: 3}
      - {fileID: 21300000, guid: e05acf243121d0b4d942bc37b8b7525c, type: 3}
      - {fileID: 21300000, guid: e05acf243121d0b4d942bc37b8b7525c, type: 3}
      - {fileID: 21300000, guid: 804ebb3afb7aa8546b391d701ff92ef5, type: 3}
      - {fileID: 21300000, guid: 2af7a392f67540848b535ffad9f57138, type: 3}
      - {fileID: 21300000, guid: 764e86796986f354da5976df64cb8c81, type: 3}
      - {fileID: 21300000, guid: bbfcb3bbbed318f408466e45c0fe0a4e, type: 3}
      - {fileID: 21300000, guid: bbfcb3bbbed318f408466e45c0fe0a4e, type: 3}
      - {fileID: 21300000, guid: 3fe116ebd77c8b24bb9b52010f3a6b3b, type: 3}
      m_AnimationSpeed: 1
      m_AnimationTimeOffset: 0
      m_IsLooping: 1
  m_TileAssetArray:
  - m_RefCount: 1
    m_Data: {fileID: 11400000, guid: 5bd9bbd5f9388ee46b0eb3a3f5a43419, type: 2}
  - m_RefCount: 1
    m_Data: {fileID: 11400000, guid: 78afd3e3b5159464ba5534cbf614c3f9, type: 2}
  - m_RefCount: 1
    m_Data: {fileID: 11400000, guid: 7b0a20ffbe92cc242a3bc1bcea02ace5, type: 2}
  - m_RefCount: 1
    m_Data: {fileID: 11400000, guid: c7e6c6c13b173ca4999807fe2df8a242, type: 2}
  - m_RefCount: 1
    m_Data: {fileID: 11400000, guid: de272bad50d00cd47868913228853710, type: 2}
  - m_RefCount: 1
    m_Data: {fileID: 11400000, guid: 203bfe8ebec06c54fbe484d181814d24, type: 2}
  - m_RefCount: 1
    m_Data: {fileID: 11400000, guid: abd7179184f3b384db27c307c94effd0, type: 2}
  - m_RefCount: 1
    m_Data: {fileID: 11400000, guid: 31228db0b63c92144ac8a2c2a1780375, type: 2}
  - m_RefCount: 1
    m_Data: {fileID: 11400000, guid: fcec7a65edb605542a54bc9ebaa07fee, type: 2}
  - m_RefCount: 1
    m_Data: {fileID: 11400000, guid: 20e78afd9703e11489e80420e4f61076, type: 2}
  - m_RefCount: 1
    m_Data: {fileID: 11400000, guid: 6e5a9cda12155324d919300142fb1cbd, type: 2}
  - m_RefCount: 1
    m_Data: {fileID: 11400000, guid: 9602a3c1b4dd9584587444225fb960d8, type: 2}
  - m_RefCount: 1
    m_Data: {fileID: 11400000, guid: d155c70bddde2b3488a29da8b018f5a6, type: 2}
  - m_RefCount: 1
    m_Data: {fileID: 11400000, guid: a29f4aea5f67716448dbebefb5983e50, type: 2}
  - m_RefCount: 1
    m_Data: {fileID: 11400000, guid: d744bc282d20a1146953aa63fab96f43, type: 2}
  - m_RefCount: 1
    m_Data: {fileID: 11400000, guid: 159b73f72e613c241b05b76cdc3f1b1b, type: 2}
  - m_RefCount: 1
    m_Data: {fileID: 11400000, guid: 2c416a8bee613a949a06ef46c49cc21c, type: 2}
  - m_RefCount: 1
    m_Data: {fileID: 11400000, guid: 0274143566063b640b6ff3f045d3156c, type: 2}
  - m_RefCount: 1
    m_Data: {fileID: 11400000, guid: 5fae2b50fc25513469198cedace55b47, type: 2}
  - m_RefCount: 1
    m_Data: {fileID: 11400000, guid: 679a00456c1c8ff449eb2b81199566b6, type: 2}
  - m_RefCount: 1
    m_Data: {fileID: 11400000, guid: 168fda8f84301e242b7b9f276d422659, type: 2}
  - m_RefCount: 1
    m_Data: {fileID: 11400000, guid: f9775531345fe72408f8462e3cb92f5b, type: 2}
  m_TileSpriteArray:
  - m_RefCount: 1
    m_Data: {fileID: 21300000, guid: 20376b13a6e542d4e8286e451738f86e, type: 3}
  - m_RefCount: 1
    m_Data: {fileID: 21300000, guid: f3bd0519c5fd1774e9069827209940f9, type: 3}
  - m_RefCount: 1
    m_Data: {fileID: 21300000, guid: 08abb900326e3c344bc5e12556c8b12c, type: 3}
  - m_RefCount: 1
    m_Data: {fileID: 21300000, guid: 53347a52eddd60e4cb649833b020a414, type: 3}
  - m_RefCount: 1
    m_Data: {fileID: 21300000, guid: 71048292939b3d04c8105e5145cdd35d, type: 3}
  - m_RefCount: 1
    m_Data: {fileID: 21300000, guid: 920e4e15828232447978a9589e3b7d20, type: 3}
  - m_RefCount: 1
    m_Data: {fileID: 21300000, guid: 5c8c2d65f3b2ad64aa519040de87a6e1, type: 3}
  - m_RefCount: 1
    m_Data: {fileID: 21300000, guid: b743eb569d576d04bacab90f01423b0b, type: 3}
  - m_RefCount: 1
    m_Data: {fileID: 21300000, guid: d9dc4ed617f503745848b0551dee4b3e, type: 3}
  - m_RefCount: 1
    m_Data: {fileID: 21300000, guid: 39e957670c54395438c1919e912529d2, type: 3}
  - m_RefCount: 1
    m_Data: {fileID: 21300000, guid: b53f56ab587ccc147bf1bd48a3acf895, type: 3}
  - m_RefCount: 1
    m_Data: {fileID: 21300000, guid: 8cb5ee0cb4410f342bd6cf4113aa0c9d, type: 3}
  - m_RefCount: 1
    m_Data: {fileID: 21300000, guid: 7c1bf37cc2a38ad44843d7b07b42d7fc, type: 3}
  - m_RefCount: 1
    m_Data: {fileID: 21300000, guid: f781fd8c433fe4e4b8722eb9e103579e, type: 3}
  - m_RefCount: 1
    m_Data: {fileID: 21300000, guid: 3d60bd7d333117b4580179dd95f7c5cb, type: 3}
  - m_RefCount: 1
    m_Data: {fileID: 21300000, guid: 3fe116ebd77c8b24bb9b52010f3a6b3b, type: 3}
  - m_RefCount: 1
    m_Data: {fileID: 21300000, guid: bbed7555996315040913f3761b0d7779, type: 3}
  - m_RefCount: 1
    m_Data: {fileID: 21300002, guid: bbed7555996315040913f3761b0d7779, type: 3}
  - m_RefCount: 1
    m_Data: {fileID: 21300000, guid: 80ee5008bb8f52b47916b911f020d78b, type: 3}
  - m_RefCount: 1
    m_Data: {fileID: 21300000, guid: 44723be05486a4b4098217d804422924, type: 3}
  - m_RefCount: 1
    m_Data: {fileID: 21300000, guid: 0fdc04ecc8ae9dc4fab4808ca42c465d, type: 3}
  - m_RefCount: 1
    m_Data: {fileID: 21300000, guid: 977c7e75264aab949874c78fccc6d6e5, type: 3}
  m_TileMatrixArray:
  - m_RefCount: 22
    m_Data:
      e00: 1
      e01: 0
      e02: 0
      e03: 0
      e10: 0
      e11: 1
      e12: 0
      e13: 0
      e20: 0
      e21: 0
      e22: 1
      e23: 0
      e30: 0
      e31: 0
      e32: 0
      e33: 1
  m_TileColorArray:
  - m_RefCount: 22
    m_Data: {r: 1, g: 1, b: 1, a: 1}
  - m_RefCount: 0
    m_Data: {r: 8.784449e-39, g: 8.784449e-39, b: 8.784449e-39, a: 8.784449e-39}
  m_AnimationFrameRate: 1
  m_Color: {r: 1, g: 1, b: 1, a: 1}
  m_Origin: {x: -7, y: -2, z: 0}
  m_Size: {x: 12, y: 4, z: 1}
  m_TileAnchor: {x: 0.5, y: 0.5, z: 0}
  m_TileOrientation: 0
  m_TileOrientationMatrix:
    e00: 1
    e01: 0
    e02: 0
    e03: 0
    e10: 0
    e11: 1
    e12: 0
    e13: 0
    e20: 0
    e21: 0
    e22: 1
    e23: 0
    e30: 0
    e31: 0
    e32: 0
    e33: 1
--- !u!483693784 &804828165833236195
TilemapRenderer:
  m_ObjectHideFlags: 0
  m_CorrespondingSourceObject: {fileID: 0}
  m_PrefabInstance: {fileID: 0}
  m_PrefabAsset: {fileID: 0}
  m_GameObject: {fileID: 3286334962474121055}
  m_Enabled: 0
  m_CastShadows: 0
  m_ReceiveShadows: 0
  m_DynamicOccludee: 0
  m_MotionVectors: 1
  m_LightProbeUsage: 0
  m_ReflectionProbeUsage: 0
  m_RenderingLayerMask: 1
  m_RendererPriority: 0
  m_Materials:
  - {fileID: 10754, guid: 0000000000000000f000000000000000, type: 0}
  m_StaticBatchInfo:
    firstSubMesh: 0
    subMeshCount: 0
  m_StaticBatchRoot: {fileID: 0}
  m_ProbeAnchor: {fileID: 0}
  m_LightProbeVolumeOverride: {fileID: 0}
  m_ScaleInLightmap: 1
  m_PreserveUVs: 0
  m_IgnoreNormalsForChartDetection: 0
  m_ImportantGI: 0
  m_StitchLightmapSeams: 0
  m_SelectedEditorRenderState: 0
  m_MinimumChartSize: 4
  m_AutoUVMaxDistance: 0.5
  m_AutoUVMaxAngle: 89
  m_LightmapParameters: {fileID: 0}
  m_SortingLayerID: 0
  m_SortingLayer: 0
  m_SortingOrder: 0
  m_ChunkSize: {x: 32, y: 32, z: 32}
  m_ChunkCullingBounds: {x: 0.5, y: 0.5, z: 0}
  m_MaxChunkCount: 16
  m_MaxFrameAge: 16
  m_SortOrder: 0
  m_Mode: 0
  m_DetectChunkCullingBounds: 0
  m_MaskInteraction: 0
--- !u!1 &6922861602084195414
GameObject:
  m_ObjectHideFlags: 0
  m_CorrespondingSourceObject: {fileID: 0}
  m_PrefabInstance: {fileID: 0}
  m_PrefabAsset: {fileID: 0}
  serializedVersion: 6
  m_Component:
  - component: {fileID: 8218550911900899400}
  - component: {fileID: 5708932453319708508}
  m_Layer: 31
  m_Name: Terrain
  m_TagString: Untagged
  m_Icon: {fileID: 0}
  m_NavMeshLayer: 0
  m_StaticEditorFlags: 0
  m_IsActive: 1
--- !u!4 &8218550911900899400
Transform:
  m_ObjectHideFlags: 0
  m_CorrespondingSourceObject: {fileID: 0}
  m_PrefabInstance: {fileID: 0}
  m_PrefabAsset: {fileID: 0}
  m_GameObject: {fileID: 6922861602084195414}
  m_LocalRotation: {x: 0, y: 0, z: 0, w: 1}
  m_LocalPosition: {x: 0, y: 0, z: 0}
  m_LocalScale: {x: 1, y: 1, z: 1}
  m_Children:
  - {fileID: 940542394956987457}
  m_Father: {fileID: 0}
  m_RootOrder: 0
  m_LocalEulerAnglesHint: {x: 0, y: 0, z: 0}
--- !u!156049354 &5708932453319708508
Grid:
  m_ObjectHideFlags: 0
  m_CorrespondingSourceObject: {fileID: 0}
  m_PrefabInstance: {fileID: 0}
  m_PrefabAsset: {fileID: 0}
  m_GameObject: {fileID: 6922861602084195414}
  m_Enabled: 1
  m_CellSize: {x: 1, y: 1, z: 0}
  m_CellGap: {x: 0, y: 0, z: 0}
  m_CellLayout: 0
  m_CellSwizzle: 0
--- !u!114 &114499357856355638
MonoBehaviour:
  m_ObjectHideFlags: 0
  m_CorrespondingSourceObject: {fileID: 0}
  m_PrefabInstance: {fileID: 0}
  m_PrefabAsset: {fileID: 0}
  m_GameObject: {fileID: 0}
  m_Enabled: 1
  m_EditorHideFlags: 0
  m_Script: {fileID: 12395, guid: 0000000000000000e000000000000000, type: 0}
  m_Name: Palette Settings
  m_EditorClassIdentifier: 
  cellSizing: 0
