%YAML 1.1
%TAG !u! tag:unity3d.com,2011:
--- !u!114 &11400000
MonoBehaviour:
  m_ObjectHideFlags: 0
  m_CorrespondingSourceObject: {fileID: 0}
  m_PrefabInstance: {fileID: 0}
  m_PrefabAsset: {fileID: 0}
  m_GameObject: {fileID: 0}
  m_Enabled: 1
  m_EditorHideFlags: 0
  m_Script: {fileID: 11500000, guid: 688063d5cc440f640b288fb03337e40f, type: 3}
  m_Name: CompanyLvl3
  m_EditorClassIdentifier: 
  delay: 3
  duration: 1
  buffTarget: {fileID: 11400000, guid: c446239af57d34f4fbc9c0b1c5f4172a, type: 2}
  tile: {fileID: 11400000, guid: 0ab68f8c642dc6e4fa925d5016619d5d, type: 2}
  obsolete: 0
  coords:
  - {fileID: 11400000, guid: f8099e3329949ca47a0349a794c84748, type: 2}
