%YAML 1.1
%TAG !u! tag:unity3d.com,2011:
--- !u!114 &11400000
MonoBehaviour:
  m_ObjectHideFlags: 0
  m_CorrespondingSourceObject: {fileID: 0}
  m_PrefabInstance: {fileID: 0}
  m_PrefabAsset: {fileID: 0}
  m_GameObject: {fileID: 0}
  m_Enabled: 1
  m_EditorHideFlags: 0
  m_Script: {fileID: 11500000, guid: 688063d5cc440f640b288fb03337e40f, type: 3}
  m_Name: Housing2
  m_EditorClassIdentifier: 
  delay: 8
  duration: 1
  buffTarget: {fileID: 11400000, guid: c446239af57d34f4fbc9c0b1c5f4172a, type: 2}
  tile: {fileID: 11400000, guid: b9f5821f79b7ae84180624bbca5b98b6, type: 2}
  obsolete: 0
  coords:
  - {fileID: 11400000, guid: 99883c3fa5f39cc4d9ee362fd3c3eba7, type: 2}
  - {fileID: 11400000, guid: 895870f1e4a9c5e46bde28eb10ae6ad6, type: 2}
