%YAML 1.1
%TAG !u! tag:unity3d.com,2011:
--- !u!114 &11400000
MonoBehaviour:
  m_ObjectHideFlags: 0
  m_CorrespondingSourceObject: {fileID: 0}
  m_PrefabInstance: {fileID: 0}
  m_PrefabAsset: {fileID: 0}
  m_GameObject: {fileID: 0}
  m_Enabled: 1
  m_EditorHideFlags: 0
  m_Script: {fileID: 11500000, guid: 688063d5cc440f640b288fb03337e40f, type: 3}
  m_Name: Housing1
  m_EditorClassIdentifier: 
  delay: 5
  duration: 1
  buffTarget: {fileID: 11400000, guid: c446239af57d34f4fbc9c0b1c5f4172a, type: 2}
  tile: {fileID: 11400000, guid: dc013b93b417e9447b2e5bb52ae4381f, type: 2}
  obsolete: 0
  coords:
  - {fileID: 11400000, guid: 0de75e068f6b0944ba9a316e789054ec, type: 2}
  - {fileID: 11400000, guid: e511732728f427044ab1efda29d66c8d, type: 2}
  - {fileID: 11400000, guid: 2e0129ea5a17f4a49962b49e95dcefef, type: 2}
  - {fileID: 11400000, guid: 559c6b6645223954d9e4449c724c2a79, type: 2}
