%YAML 1.1
%TAG !u! tag:unity3d.com,2011:
--- !u!114 &11400000
MonoBehaviour:
  m_ObjectHideFlags: 0
  m_CorrespondingSourceObject: {fileID: 0}
  m_PrefabInstance: {fileID: 0}
  m_PrefabAsset: {fileID: 0}
  m_GameObject: {fileID: 0}
  m_Enabled: 1
  m_EditorHideFlags: 0
  m_Script: {fileID: 11500000, guid: 623e57550bebca34b800806ddc8c1246, type: 3}
  m_Name: SocAura
  m_EditorClassIdentifier: 
  delay: 0
  duration: -1
  buffTarget: {fileID: 11400000, guid: f60b4a3f149b135449d0adb1453e0766, type: 2}
  auraTarget: {fileID: 11400000, guid: 255856339c7645f44b06ca7d599bea7e, type: 2}
  baseVal: -1
  maxThreshold: 0
  minThreshold: -50
