%YAML 1.1
%TAG !u! tag:unity3d.com,2011:
--- !u!114 &11400000
MonoBehaviour:
  m_ObjectHideFlags: 0
  m_CorrespondingSourceObject: {fileID: 0}
  m_PrefabInstance: {fileID: 0}
  m_PrefabAsset: {fileID: 0}
  m_GameObject: {fileID: 0}
  m_Enabled: 1
  m_EditorHideFlags: 0
  m_Script: {fileID: 11500000, guid: e5664a7968558bc4c917378bfb48b4e1, type: 3}
  m_Name: EnvBuck
  m_EditorClassIdentifier: 
  delay: 0
  duration: 1
  buffTarget: {fileID: 11400000, guid: c844c71f05299b74c8fd3fa3745e6b36, type: 2}
  sum: -10
