%YAML 1.1
%TAG !u! tag:unity3d.com,2011:
--- !u!114 &11400000
MonoBehaviour:
  m_ObjectHideFlags: 0
  m_CorrespondingSourceObject: {fileID: 0}
  m_PrefabInstance: {fileID: 0}
  m_PrefabAsset: {fileID: 0}
  m_GameObject: {fileID: 0}
  m_Enabled: 1
  m_EditorHideFlags: 0
  m_Script: {fileID: 11500000, guid: f231761b4a5095846be50e20814f7997, type: 3}
  m_Name: FreeBlockB
  m_EditorClassIdentifier: 
  ContextInfo: []
  terrainBuffs:
  - {fileID: 11400000, guid: 78d811fd9f3855448a7478ad06b4761c, type: 2}
  - {fileID: 11400000, guid: 86bf2c1ce5e96454da89eb486c4381d1, type: 2}
  - {fileID: 11400000, guid: b9f121f375bc6454eadd7e1ae8ad6a7f, type: 2}
  - {fileID: 11400000, guid: 9f95f1ffd0e658f4aa7936fb0dea8ba0, type: 2}
  - {fileID: 11400000, guid: 7e45c802261795045a4c94b348d46ab4, type: 2}
  - {fileID: 11400000, guid: b0b8f1e654fb455468d94ddc2e2a5506, type: 2}
  - {fileID: 11400000, guid: 60a322be2f6ebb44799cc2995f6669dc, type: 2}
