%YAML 1.1
%TAG !u! tag:unity3d.com,2011:
--- !u!114 &11400000
MonoBehaviour:
  m_ObjectHideFlags: 0
  m_CorrespondingSourceObject: {fileID: 0}
  m_PrefabInstance: {fileID: 0}
  m_PrefabAsset: {fileID: 0}
  m_GameObject: {fileID: 0}
  m_Enabled: 1
  m_EditorHideFlags: 0
  m_Script: {fileID: 11500000, guid: 688063d5cc440f640b288fb03337e40f, type: 3}
  m_Name: ElecTree2
  m_EditorClassIdentifier: 
  delay: 1
  duration: 1
  buffTarget: {fileID: 11400000, guid: c446239af57d34f4fbc9c0b1c5f4172a, type: 2}
  tile: {fileID: 11400000, guid: e51e622ca9eeef74198a9b49268a0ed2, type: 2}
  obsolete: 0
  coords:
  - {fileID: 11400000, guid: 99b319f5b9654c94eb680f01587f60a2, type: 2}
  - {fileID: 11400000, guid: 9454eedb970e9bd4695b1bb107bb688c, type: 2}
  - {fileID: 11400000, guid: 383ca810bd50f7a418bd4091e3518aca, type: 2}
  - {fileID: 11400000, guid: bd139a03e07e0414793d7a3d6c2292ef, type: 2}
  - {fileID: 11400000, guid: f4724aa30b6807f45a8a4596a15f55c8, type: 2}
  - {fileID: 11400000, guid: 1d0286a5424669a46be832ce4e4a24cb, type: 2}
