%YAML 1.1
%TAG !u! tag:unity3d.com,2011:
--- !u!114 &11400000
MonoBehaviour:
  m_ObjectHideFlags: 0
  m_CorrespondingSourceObject: {fileID: 0}
  m_PrefabInstance: {fileID: 0}
  m_PrefabAsset: {fileID: 0}
  m_GameObject: {fileID: 0}
  m_Enabled: 1
  m_EditorHideFlags: 0
  m_Script: {fileID: 11500000, guid: 7489e2e17fce7564c9df98f3c7f826e0, type: 3}
  m_Name: Resource Acquisition Losing Control
  m_EditorClassIdentifier: 
  storyType: {fileID: 11400000, guid: 4ff098b825d7ed94b900b5c10ab6697f, type: 2}
  properties:
  - stringValue: 'Resource Acquisition: Losing Control'
    intValue: 0
    sprite: {fileID: 0}
    element: {fileID: 11400000, guid: 02dc20d1c159bdf42b57f19a2a703242, type: 2}
  - stringValue: Your companies investigation into the malfunctioning automated mining
      systems have revealed that the issue is systemic and spreading at an increasing
      rate. The machines, still actively in use, are demonstrating an increasing lack
      of response to 'stop' commands as they continue mining operations beyond their
      programmed limits. The mining companies using this technology are paying the
      problem little mind though as the more time the machines spend mining, the more
      money they make. But this is happenning with little regard for the consequences
      that the environment faces if automated mining systems all across the plant
      become unstoppable and unrelenting at their task. Your engineers predict that
      if the automated mining machines were allowed to remain uncontrolled and continued
      increasing their speed of operation, they could very quickly cause severe environmental
      damage to large swaths of the earth as they mine everything in their paths.
      Obviously this problem must be fixed, but yet again the choice becomes, do you
      stop all automated mining systems across the world, essentially halting all
      major global mining operations in order to try and fix the issue? Or do you
      instead allow the mining machines you developed to continue operating as you
      rush to try and fix the issue?
    intValue: 0
    sprite: {fileID: 0}
    element: {fileID: 11400000, guid: 878a357ec93122e4fb06251b95bbfe53, type: 2}
  - stringValue: 
    intValue: 0
    sprite: {fileID: 21300000, guid: 5b5857eb31acaec40bc39c40b4e2e123, type: 3}
    element: {fileID: 11400000, guid: c4b9fbd48b5ec554792c4ada1d967d70, type: 2}
  - stringValue: Stop the Mining & Try Solve the Problem
    intValue: 0
    sprite: {fileID: 0}
    element: {fileID: 11400000, guid: c110f790fbae9b6478547eae0ed06e2c, type: 2}
  - stringValue: Keep Mining & Try Solve the Problem
    intValue: 0
    sprite: {fileID: 0}
    element: {fileID: 11400000, guid: 2ecda7393f22d6347a9a45bc97f831dc, type: 2}
  _keys:
  - Stop the Mining & Try Solve the Problem
  - Keep Mining & Try Solve the Problem
  _values:
  - solutionText: Your company is now aware of the devestating threat a collection
      of out of control incredibly powerful automatic mining systems might have on
      the environment, and thus the risk it poses to the lives of all humanity who
      so obviously rely on the environment not being destroyed. That is nothing to
      say of the untold number of animals who would likely die as their habitats are
      destroyed along with entire ecosystems if you can't stop rampaging autonomous
      mining systems. With this knowledge, held against the backdrop of your personal
      valuing and enjoyment of the natural world, you cannot ethicaly justify allowing
      the mining systems the chance to become an unstoppable force of destructive
      power while you sit in your cosy offices. The ethical decision in this case
      is the one that minimises risk. The risk it poses to leave the machines running
      while you try and fix them is far too great, even if it means stopping global
      mining operations for a time. You decide to let the mining companies know you'll
      be temporary disabling their mining systems operations until the problem can
      be resolved, knowing that you'll likely have to compensate them monetarily for
      profits lossed during that time, as would be your responsibility.
    nextCard: {fileID: 0}
    nextLvlCard: {fileID: 11400000, guid: 620d6fdd316e18442b949da752e9c546, type: 2}
    CardEffects:
    - {fileID: 11400000, guid: 4de9b8fad6b51bb4d9128a1748e90afc, type: 2}
    - {fileID: 11400000, guid: b8cf09818e9953a4087b7a3e3439f0ae, type: 2}
    - {fileID: 11400000, guid: 70d4747f32c8b3c45a62d97cc6f3f31d, type: 2}
    - {fileID: 11400000, guid: 90f14dc9f80f5b14b898e39ae0af1183, type: 2}
    - {fileID: 11400000, guid: df51e1f1f0efe224db43c353d7e88288, type: 2}
    ContextBundle: {fileID: 0}
  - solutionText: Stopping global mining operations for a short time to fix the bug
      in the automated system would likely only affect mining companies profits, for
      which you would have to compensate them. But in the event your company struggles
      to fix the problem and the disruption in the world's mining operations were
      to continue for too long, the consequences could be severe. It would likely
      wreak havoc on the worlds economy as minerals resources became far less available
      and thus more expensive. Would such a situation be economically sustainable?
      Would the economy be able to recover and stablish when operations finally did
      resume? Such instability would impact almost all manufacturing, increasing the
      cost and decreasing the availabilty of all products that require any mineral
      resources. This would be reflected in significantly higher costs and signficantly
      reduced availabiltiy for consumer goods, medical technology, construction materials
      and almost everything else necessary for society to function properly. So now
      we must ask, can society survive this temporary inbalance, or crumble into an
      unsustainable unravelling? Consider also the effect that stopping mining of
      energy resources like oil and coal would have. Skyrocketing power cost, power
      outages in homes, hospitals and commerce. All possible repercussions of stopping
      mining can't be predicted, but they would likely be devesating. You argue the
      risk you put on the world by allowing the automated mining operations to continue
      while you try fix the malfunction in the system, is far less than the risk the
      world faces if the majority of its mining operations were stopped simultanesously.
      Thus, the ethical decision is the one that presents the least net risk to all
      parties. You allow the automated mining system remain active while you try to
      fix it.
    nextCard: {fileID: 0}
    nextLvlCard: {fileID: 11400000, guid: ef8e76534b8cc4e40aed8f21da45eec4, type: 2}
    CardEffects:
    - {fileID: 11400000, guid: 2a1b2bd5b0bc1724aa7577d1abc5e40e, type: 2}
    - {fileID: 11400000, guid: 18de1c17abe38ee4f88022fbb1174faf, type: 2}
    - {fileID: 11400000, guid: 8c893a099c19b3648bd363eedc49c900, type: 2}
    ContextBundle: {fileID: 0}
